[doOneWrapper (1)] HOME=/results/atlas-digi-reco-c1-e2-1564939858_1321/proc_1/HOME
[doOneWrapper (1)] Sun Aug  4 19:30:58 CEST 2019 : process 1 configured
[doOneWrapper (1)] current process pid is 35

[doOneWrapper (1)] Sun Aug  4 19:30:58 CEST 2019 : inside docker - run doOne as bmkuser
[doOne (1)] Sun Aug  4 19:30:59 CEST 2019 starting in /results/atlas-digi-reco-c1-e2-1564939858_1321/proc_1
!!!Warning!!! ignore non-existent input nightliesarea=/cvmfs/atlas-nightlies.cern.ch/repo/sw
!!!Warning!!! ignore non-existent nightly-type release location=/cvmfs/atlas-nightlies.cern.ch/repo/sw
Using Athena/21.0.23 [cmake] with platform x86_64-slc6-gcc62-opt
	at /cvmfs/atlas.cern.ch/repo/sw/software/21.0
[doOne (1)] Sun Aug  4 20:03:35 CEST 2019 completed (status=0)

[doOneWrapper (1)] Sun Aug  4 20:03:35 CEST 2019 : process 1 completed ok

