Parsing results from /results/atlas-sim-c2-e3-1564954419_4146/proc_1/log.EVNTtoHITS
Parsing results from /results/atlas-sim-c2-e3-1564954419_4146/proc_2/log.EVNTtoHITS
{"copies":2 , "threads_per_copy":2 , "events_per_thread" : 3 , "CPU_score": {"score": 0.0114, "avg": 0.0029, "median": 0.0029, "min": 0.0025, "max": 0.0032, "count": 4} , "log": "ok", "app":{"version":"v0.18","description":"ATLAS Sim (GEANT4) based on athena version 21.0.15","cvmfs_checksum":"5a371565e9f5abf81686a551c91703ba","bmkdata_checksum":"b94489e16c0a77f2a0a9aaf333260a96","bmk_checksum":"97142ce8dcd5ebf2dfe5f1d578c4decb"} }
{"app":{"bmk_checksum":"97142ce8dcd5ebf2dfe5f1d578c4decb","bmkdata_checksum":"b94489e16c0a77f2a0a9aaf333260a96","cvmfs_checksum":"5a371565e9f5abf81686a551c91703ba","description":"ATLAS Sim (GEANT4) based on athena version 21.0.15","version":"v0.18"},"log":"ok","CPU_score":{"count":4,"max":0.0032,"min":0.0025,"median":0.0029,"avg":0.0029,"score":0.0114},"events_per_thread":3,"threads_per_copy":2,"copies":2}
{"copies":2,"threads_per_copy":2,"events_per_thread":3,"CPU_score":{"score":0.0114,"avg":0.0029,"median":0.0029,"min":0.0025,"max":0.0032,"count":4},"log":"ok","app":{"version":"v0.18","description":"ATLAS Sim (GEANT4) based on athena version 21.0.15","cvmfs_checksum":"5a371565e9f5abf81686a551c91703ba","bmkdata_checksum":"b94489e16c0a77f2a0a9aaf333260a96","bmk_checksum":"97142ce8dcd5ebf2dfe5f1d578c4decb"}}
Parsing results from /results/atlas-sim-c2-e3-1564958541_1420/proc_1/log.EVNTtoHITS
Parsing results from /results/atlas-sim-c2-e3-1564958541_1420/proc_2/log.EVNTtoHITS
{"copies":2 , "threads_per_copy":2 , "events_per_thread" : 3 , "CPU_score": {"score": 0.0113, "avg": 0.0028, "median": 0.0028, "min": 0.0025, "max": 0.0032, "count": 4} , "log": "ok", "app":{"version":"v0.18","description":"ATLAS Sim (GEANT4) based on athena version 21.0.15","cvmfs_checksum":"c6f3ae728601702359b4e8c4eb8dd2f4","bmkdata_checksum":"b94489e16c0a77f2a0a9aaf333260a96","bmk_checksum":"dc485aa99ade5804c77cc0f2b6da39b8"} }
{"app":{"bmk_checksum":"dc485aa99ade5804c77cc0f2b6da39b8","bmkdata_checksum":"b94489e16c0a77f2a0a9aaf333260a96","cvmfs_checksum":"c6f3ae728601702359b4e8c4eb8dd2f4","description":"ATLAS Sim (GEANT4) based on athena version 21.0.15","version":"v0.18"},"log":"ok","CPU_score":{"count":4,"max":0.0032,"min":0.0025,"median":0.0028,"avg":0.0028,"score":0.0113},"events_per_thread":3,"threads_per_copy":2,"copies":2}
{"copies":2,"threads_per_copy":2,"events_per_thread":3,"CPU_score":{"score":0.0114,"avg":0.0029,"median":0.0029,"min":0.0025,"max":0.0032,"count":4},"log":"ok","app":{"version":"v0.18","description":"ATLAS Sim (GEANT4) based on athena version 21.0.15","cvmfs_checksum":"5a371565e9f5abf81686a551c91703ba","bmkdata_checksum":"b94489e16c0a77f2a0a9aaf333260a96","bmk_checksum":"97142ce8dcd5ebf2dfe5f1d578c4decb"}}
Parsing results from /results/atlas-sim-c2-e3-1564961694_8955/proc_1/log.EVNTtoHITS
Parsing results from /results/atlas-sim-c2-e3-1564961694_8955/proc_2/log.EVNTtoHITS
{"copies":2 , "threads_per_copy":2 , "events_per_thread" : 3 , "CPU_score": {"score": 0.0116, "avg": 0.0029, "median": 0.0029, "min": 0.0025, "max": 0.0033, "count": 4} , "log": "ok", "app":{"version":"v0.18","description":"ATLAS Sim (GEANT4) based on athena version 21.0.15","cvmfs_checksum":"c6f3ae728601702359b4e8c4eb8dd2f4","bmkdata_checksum":"b94489e16c0a77f2a0a9aaf333260a96","bmk_checksum":"dc485aa99ade5804c77cc0f2b6da39b8"} }
{"app":{"bmk_checksum":"dc485aa99ade5804c77cc0f2b6da39b8","bmkdata_checksum":"b94489e16c0a77f2a0a9aaf333260a96","cvmfs_checksum":"c6f3ae728601702359b4e8c4eb8dd2f4","description":"ATLAS Sim (GEANT4) based on athena version 21.0.15","version":"v0.18"},"log":"ok","CPU_score":{"count":4,"max":0.0033,"min":0.0025,"median":0.0029,"avg":0.0029,"score":0.0116},"events_per_thread":3,"threads_per_copy":2,"copies":2}
{"copies":2,"threads_per_copy":2,"events_per_thread":3,"CPU_score":{"score":0.0114,"avg":0.0029,"median":0.0029,"min":0.0025,"max":0.0032,"count":4},"log":"ok","app":{"version":"v0.18","description":"ATLAS Sim (GEANT4) based on athena version 21.0.15","cvmfs_checksum":"5a371565e9f5abf81686a551c91703ba","bmkdata_checksum":"b94489e16c0a77f2a0a9aaf333260a96","bmk_checksum":"97142ce8dcd5ebf2dfe5f1d578c4decb"}}
