^/lcg/contrib/gcc/6.2.0native/include
^/lcg/contrib/gcc/6.2.0native/x86_64-slc6/bin
^/lcg/contrib/gcc/6.2.0native/x86_64-slc6/include/c++/6.2.0/1.11.0
^/lcg/contrib/gcc/6.2.0native/x86_64-slc6/include/c++/6.2.0/21.0
^/lcg/contrib/gcc/6.2.0native/x86_64-slc6/include/c++/6.2.0/21.0.15
^/lcg/contrib/gcc/6.2.0native/x86_64-slc6/include/c++/6.2.0/3_1_6
^/lcg/contrib/gcc/6.2.0native/x86_64-slc6/include/c++/6.2.0/6.08.02
^/lcg/contrib/gcc/6.2.0native/x86_64-slc6/include/c++/6.2.0/6.08.02-99084
^/lcg/contrib/gcc/6.2.0native/x86_64-slc6/include/c++/6.2.0/6.2.0
^/lcg/contrib/gcc/6.2.0native/x86_64-slc6/include/c++/6.2.0/6.2.0native
^/lcg/contrib/gcc/6.2.0native/x86_64-slc6/include/c++/6.2.0/<<< cling interactive line includer >>>
^/lcg/contrib/gcc/6.2.0native/x86_64-slc6/include/c++/6.2.0/Arena.h
^/lcg/contrib/gcc/6.2.0native/x86_64-slc6/include/c++/6.2.0/ArenaAllocatorBase.h
^/lcg/contrib/gcc/6.2.0native/x86_64-slc6/include/c++/6.2.0/ArenaBase.h
^/lcg/contrib/gcc/6.2.0native/x86_64-slc6/include/c++/6.2.0/AtlasCore
^/lcg/contrib/gcc/6.2.0native/x86_64-slc6/include/c++/6.2.0/AttributeList.h
^/lcg/contrib/gcc/6.2.0native/x86_64-slc6/include/c++/6.2.0/AuxVectorData.h
^/lcg/contrib/gcc/6.2.0native/x86_64-slc6/include/c++/6.2.0/BUILDTYPE
^/lcg/contrib/gcc/6.2.0native/x86_64-slc6/include/c++/6.2.0/Blob.h
^/lcg/contrib/gcc/6.2.0native/x86_64-slc6/include/c++/6.2.0/COMPILER
^/lcg/contrib/gcc/6.2.0native/x86_64-slc6/include/c++/6.2.0/COOL
^/lcg/contrib/gcc/6.2.0native/x86_64-slc6/include/c++/6.2.0/CORAL
^/lcg/contrib/gcc/6.2.0native/x86_64-slc6/include/c++/6.2.0/CallbackStreamBuf.h
^/lcg/contrib/gcc/6.2.0native/x86_64-slc6/include/c++/6.2.0/ChannelSelection.h
^/lcg/contrib/gcc/6.2.0native/x86_64-slc6/include/c++/6.2.0/CommonMessaging.h
^/lcg/contrib/gcc/6.2.0native/x86_64-slc6/include/c++/6.2.0/DatabaseSvcFactory.h
^/lcg/contrib/gcc/6.2.0native/x86_64-slc6/include/c++/6.2.0/EventIDBase.h
^/lcg/contrib/gcc/6.2.0native/x86_64-slc6/include/c++/6.2.0/FolderSpecification.h
^/lcg/contrib/gcc/6.2.0native/x86_64-slc6/include/c++/6.2.0/FolderVersioning.h
^/lcg/contrib/gcc/6.2.0native/x86_64-slc6/include/c++/6.2.0/GAUDI
^/lcg/contrib/gcc/6.2.0native/x86_64-slc6/include/c++/6.2.0/GaudiHandle.h
^/lcg/contrib/gcc/6.2.0native/x86_64-slc6/include/c++/6.2.0/IComponentManager.h
^/lcg/contrib/gcc/6.2.0native/x86_64-slc6/include/c++/6.2.0/IDataHandleHolder.h
^/lcg/contrib/gcc/6.2.0native/x86_64-slc6/include/c++/6.2.0/IDatabase.h
^/lcg/contrib/gcc/6.2.0native/x86_64-slc6/include/c++/6.2.0/IDatabaseSvc.h
^/lcg/contrib/gcc/6.2.0native/x86_64-slc6/include/c++/6.2.0/IField.h
^/lcg/contrib/gcc/6.2.0native/x86_64-slc6/include/c++/6.2.0/IFieldSpecification.h
^/lcg/contrib/gcc/6.2.0native/x86_64-slc6/include/c++/6.2.0/IFolder.h
^/lcg/contrib/gcc/6.2.0native/x86_64-slc6/include/c++/6.2.0/IFolderSpecification.h
^/lcg/contrib/gcc/6.2.0native/x86_64-slc6/include/c++/6.2.0/IHiveStoreMgr.h
^/lcg/contrib/gcc/6.2.0native/x86_64-slc6/include/c++/6.2.0/IHvsNode.h
^/lcg/contrib/gcc/6.2.0native/x86_64-slc6/include/c++/6.2.0/IHvsNodeRecord.h
^/lcg/contrib/gcc/6.2.0native/x86_64-slc6/include/c++/6.2.0/IInterface.h
^/lcg/contrib/gcc/6.2.0native/x86_64-slc6/include/c++/6.2.0/IObject.h
^/lcg/contrib/gcc/6.2.0native/x86_64-slc6/include/c++/6.2.0/IObjectIterator.h
^/lcg/contrib/gcc/6.2.0native/x86_64-slc6/include/c++/6.2.0/IPyComponent.h
^/lcg/contrib/gcc/6.2.0native/x86_64-slc6/include/c++/6.2.0/IRecord.h
^/lcg/contrib/gcc/6.2.0native/x86_64-slc6/include/c++/6.2.0/IRecordIterator.h
^/lcg/contrib/gcc/6.2.0native/x86_64-slc6/include/c++/6.2.0/IRecordSelection.h
^/lcg/contrib/gcc/6.2.0native/x86_64-slc6/include/c++/6.2.0/IRecordSpecification.h
^/lcg/contrib/gcc/6.2.0native/x86_64-slc6/include/c++/6.2.0/IRegisterTransient.h
^/lcg/contrib/gcc/6.2.0native/x86_64-slc6/include/c++/6.2.0/ITime.h
^/lcg/contrib/gcc/6.2.0native/x86_64-slc6/include/c++/6.2.0/InstallArea
^/lcg/contrib/gcc/6.2.0native/x86_64-slc6/include/c++/6.2.0/IsMostDerivedFlag.h
^/lcg/contrib/gcc/6.2.0native/x86_64-slc6/include/c++/6.2.0/LABEL
^/lcg/contrib/gcc/6.2.0native/x86_64-slc6/include/c++/6.2.0/LCG_87
^/lcg/contrib/gcc/6.2.0native/x86_64-slc6/include/c++/6.2.0/PayloadMode.h
^/lcg/contrib/gcc/6.2.0native/x86_64-slc6/include/c++/6.2.0/PyCool
^/lcg/contrib/gcc/6.2.0native/x86_64-slc6/include/c++/6.2.0/PyCool_headers_and_helpers.h
^/lcg/contrib/gcc/6.2.0native/x86_64-slc6/include/c++/6.2.0/ROOT
^/lcg/contrib/gcc/6.2.0native/x86_64-slc6/include/c++/6.2.0/ROOT-6.08.02
^/lcg/contrib/gcc/6.2.0native/x86_64-slc6/include/c++/6.2.0/ROOT-6.08.02-build
^/lcg/contrib/gcc/6.2.0native/x86_64-slc6/include/c++/6.2.0/Record.h
^/lcg/contrib/gcc/6.2.0native/x86_64-slc6/include/c++/6.2.0/RecordSpecification.h
^/lcg/contrib/gcc/6.2.0native/x86_64-slc6/include/c++/6.2.0/Release
^/lcg/contrib/gcc/6.2.0native/x86_64-slc6/include/c++/6.2.0/ServiceHandle.h
^/lcg/contrib/gcc/6.2.0native/x86_64-slc6/include/c++/6.2.0/StorageType.h
^/lcg/contrib/gcc/6.2.0native/x86_64-slc6/include/c++/6.2.0/StringPool.h
^/lcg/contrib/gcc/6.2.0native/x86_64-slc6/include/c++/6.2.0/Time.h
^/lcg/contrib/gcc/6.2.0native/x86_64-slc6/include/c++/6.2.0/_internal
^/lcg/contrib/gcc/6.2.0native/x86_64-slc6/include/c++/6.2.0/_numpyconfig.h
^/lcg/contrib/gcc/6.2.0native/x86_64-slc6/include/c++/6.2.0/algorithm
^/lcg/contrib/gcc/6.2.0native/x86_64-slc6/include/c++/6.2.0/array
^/lcg/contrib/gcc/6.2.0native/x86_64-slc6/include/c++/6.2.0/asm
^/lcg/contrib/gcc/6.2.0native/x86_64-slc6/include/c++/6.2.0/assert.h
^/lcg/contrib/gcc/6.2.0native/x86_64-slc6/include/c++/6.2.0/atlas.cern.ch
^/lcg/contrib/gcc/6.2.0native/x86_64-slc6/include/c++/6.2.0/atomic
^/lcg/contrib/gcc/6.2.0native/x86_64-slc6/include/c++/6.2.0/atomic_base.h
^/lcg/contrib/gcc/6.2.0native/x86_64-slc6/include/c++/6.2.0/backward/1.11.0
^/lcg/contrib/gcc/6.2.0native/x86_64-slc6/include/c++/6.2.0/backward/21.0
^/lcg/contrib/gcc/6.2.0native/x86_64-slc6/include/c++/6.2.0/backward/21.0.15
^/lcg/contrib/gcc/6.2.0native/x86_64-slc6/include/c++/6.2.0/backward/3_1_6
^/lcg/contrib/gcc/6.2.0native/x86_64-slc6/include/c++/6.2.0/backward/6.08.02
^/lcg/contrib/gcc/6.2.0native/x86_64-slc6/include/c++/6.2.0/backward/6.08.02-99084
^/lcg/contrib/gcc/6.2.0native/x86_64-slc6/include/c++/6.2.0/backward/6.2.0
^/lcg/contrib/gcc/6.2.0native/x86_64-slc6/include/c++/6.2.0/backward/6.2.0native
^/lcg/contrib/gcc/6.2.0native/x86_64-slc6/include/c++/6.2.0/backward/<<< cling interactive line includer >>>
^/lcg/contrib/gcc/6.2.0native/x86_64-slc6/include/c++/6.2.0/backward/Arena.h
^/lcg/contrib/gcc/6.2.0native/x86_64-slc6/include/c++/6.2.0/backward/ArenaAllocatorBase.h
^/lcg/contrib/gcc/6.2.0native/x86_64-slc6/include/c++/6.2.0/backward/ArenaBase.h
^/lcg/contrib/gcc/6.2.0native/x86_64-slc6/include/c++/6.2.0/backward/AtlasCore
^/lcg/contrib/gcc/6.2.0native/x86_64-slc6/include/c++/6.2.0/backward/AttributeList.h
^/lcg/contrib/gcc/6.2.0native/x86_64-slc6/include/c++/6.2.0/backward/AuxVectorData.h
^/lcg/contrib/gcc/6.2.0native/x86_64-slc6/include/c++/6.2.0/backward/BUILDTYPE
^/lcg/contrib/gcc/6.2.0native/x86_64-slc6/include/c++/6.2.0/backward/Blob.h
^/lcg/contrib/gcc/6.2.0native/x86_64-slc6/include/c++/6.2.0/backward/COMPILER
^/lcg/contrib/gcc/6.2.0native/x86_64-slc6/include/c++/6.2.0/backward/COOL
^/lcg/contrib/gcc/6.2.0native/x86_64-slc6/include/c++/6.2.0/backward/CORAL
^/lcg/contrib/gcc/6.2.0native/x86_64-slc6/include/c++/6.2.0/backward/CallbackStreamBuf.h
^/lcg/contrib/gcc/6.2.0native/x86_64-slc6/include/c++/6.2.0/backward/ChannelSelection.h
^/lcg/contrib/gcc/6.2.0native/x86_64-slc6/include/c++/6.2.0/backward/CommonMessaging.h
^/lcg/contrib/gcc/6.2.0native/x86_64-slc6/include/c++/6.2.0/backward/DatabaseSvcFactory.h
^/lcg/contrib/gcc/6.2.0native/x86_64-slc6/include/c++/6.2.0/backward/EventIDBase.h
^/lcg/contrib/gcc/6.2.0native/x86_64-slc6/include/c++/6.2.0/backward/FolderSpecification.h
^/lcg/contrib/gcc/6.2.0native/x86_64-slc6/include/c++/6.2.0/backward/FolderVersioning.h
^/lcg/contrib/gcc/6.2.0native/x86_64-slc6/include/c++/6.2.0/backward/GAUDI
^/lcg/contrib/gcc/6.2.0native/x86_64-slc6/include/c++/6.2.0/backward/GaudiHandle.h
^/lcg/contrib/gcc/6.2.0native/x86_64-slc6/include/c++/6.2.0/backward/IComponentManager.h
^/lcg/contrib/gcc/6.2.0native/x86_64-slc6/include/c++/6.2.0/backward/IDataHandleHolder.h
^/lcg/contrib/gcc/6.2.0native/x86_64-slc6/include/c++/6.2.0/backward/IDatabase.h
^/lcg/contrib/gcc/6.2.0native/x86_64-slc6/include/c++/6.2.0/backward/IDatabaseSvc.h
^/lcg/contrib/gcc/6.2.0native/x86_64-slc6/include/c++/6.2.0/backward/IField.h
^/lcg/contrib/gcc/6.2.0native/x86_64-slc6/include/c++/6.2.0/backward/IFieldSpecification.h
^/lcg/contrib/gcc/6.2.0native/x86_64-slc6/include/c++/6.2.0/backward/IFolder.h
^/lcg/contrib/gcc/6.2.0native/x86_64-slc6/include/c++/6.2.0/backward/IFolderSpecification.h
^/lcg/contrib/gcc/6.2.0native/x86_64-slc6/include/c++/6.2.0/backward/IHiveStoreMgr.h
^/lcg/contrib/gcc/6.2.0native/x86_64-slc6/include/c++/6.2.0/backward/IHvsNode.h
^/lcg/contrib/gcc/6.2.0native/x86_64-slc6/include/c++/6.2.0/backward/IHvsNodeRecord.h
^/lcg/contrib/gcc/6.2.0native/x86_64-slc6/include/c++/6.2.0/backward/IInterface.h
^/lcg/contrib/gcc/6.2.0native/x86_64-slc6/include/c++/6.2.0/backward/IObject.h
^/lcg/contrib/gcc/6.2.0native/x86_64-slc6/include/c++/6.2.0/backward/IObjectIterator.h
^/lcg/contrib/gcc/6.2.0native/x86_64-slc6/include/c++/6.2.0/backward/IPyComponent.h
^/lcg/contrib/gcc/6.2.0native/x86_64-slc6/include/c++/6.2.0/backward/IRecord.h
^/lcg/contrib/gcc/6.2.0native/x86_64-slc6/include/c++/6.2.0/backward/IRecordIterator.h
^/lcg/contrib/gcc/6.2.0native/x86_64-slc6/include/c++/6.2.0/backward/IRecordSelection.h
^/lcg/contrib/gcc/6.2.0native/x86_64-slc6/include/c++/6.2.0/backward/IRecordSpecification.h
^/lcg/contrib/gcc/6.2.0native/x86_64-slc6/include/c++/6.2.0/backward/IRegisterTransient.h
^/lcg/contrib/gcc/6.2.0native/x86_64-slc6/include/c++/6.2.0/backward/ITime.h
^/lcg/contrib/gcc/6.2.0native/x86_64-slc6/include/c++/6.2.0/backward/InstallArea
^/lcg/contrib/gcc/6.2.0native/x86_64-slc6/include/c++/6.2.0/backward/IsMostDerivedFlag.h
^/lcg/contrib/gcc/6.2.0native/x86_64-slc6/include/c++/6.2.0/backward/LABEL
^/lcg/contrib/gcc/6.2.0native/x86_64-slc6/include/c++/6.2.0/backward/LCG_87
^/lcg/contrib/gcc/6.2.0native/x86_64-slc6/include/c++/6.2.0/backward/PayloadMode.h
^/lcg/contrib/gcc/6.2.0native/x86_64-slc6/include/c++/6.2.0/backward/PyCool
^/lcg/contrib/gcc/6.2.0native/x86_64-slc6/include/c++/6.2.0/backward/PyCool_headers_and_helpers.h
^/lcg/contrib/gcc/6.2.0native/x86_64-slc6/include/c++/6.2.0/backward/ROOT
^/lcg/contrib/gcc/6.2.0native/x86_64-slc6/include/c++/6.2.0/backward/ROOT-6.08.02
^/lcg/contrib/gcc/6.2.0native/x86_64-slc6/include/c++/6.2.0/backward/ROOT-6.08.02-build
^/lcg/contrib/gcc/6.2.0native/x86_64-slc6/include/c++/6.2.0/backward/Record.h
^/lcg/contrib/gcc/6.2.0native/x86_64-slc6/include/c++/6.2.0/backward/RecordSpecification.h
^/lcg/contrib/gcc/6.2.0native/x86_64-slc6/include/c++/6.2.0/backward/Release
^/lcg/contrib/gcc/6.2.0native/x86_64-slc6/include/c++/6.2.0/backward/ServiceHandle.h
^/lcg/contrib/gcc/6.2.0native/x86_64-slc6/include/c++/6.2.0/backward/StorageType.h
^/lcg/contrib/gcc/6.2.0native/x86_64-slc6/include/c++/6.2.0/backward/StringPool.h
^/lcg/contrib/gcc/6.2.0native/x86_64-slc6/include/c++/6.2.0/backward/Time.h
^/lcg/contrib/gcc/6.2.0native/x86_64-slc6/include/c++/6.2.0/backward/_internal
^/lcg/contrib/gcc/6.2.0native/x86_64-slc6/include/c++/6.2.0/backward/_numpyconfig.h
^/lcg/contrib/gcc/6.2.0native/x86_64-slc6/include/c++/6.2.0/backward/asm
^/lcg/contrib/gcc/6.2.0native/x86_64-slc6/include/c++/6.2.0/backward/assert.h
^/lcg/contrib/gcc/6.2.0native/x86_64-slc6/include/c++/6.2.0/backward/atlas.cern.ch
^/lcg/contrib/gcc/6.2.0native/x86_64-slc6/include/c++/6.2.0/backward/atomic_base.h
^/lcg/contrib/gcc/6.2.0native/x86_64-slc6/include/c++/6.2.0/backward/auto_ptr.h
^/lcg/contrib/gcc/6.2.0native/x86_64-slc6/include/c++/6.2.0/backward/backward_warning.h
^/lcg/contrib/gcc/6.2.0native/x86_64-slc6/include/c++/6.2.0/backward/basic_ios.h
^/lcg/contrib/gcc/6.2.0native/x86_64-slc6/include/c++/6.2.0/backward/basic_ios.tcc
^/lcg/contrib/gcc/6.2.0native/x86_64-slc6/include/c++/6.2.0/backward/bin
^/lcg/contrib/gcc/6.2.0native/x86_64-slc6/include/c++/6.2.0/backward/binders.h
^/lcg/contrib/gcc/6.2.0native/x86_64-slc6/include/c++/6.2.0/backward/bits
^/lcg/contrib/gcc/6.2.0native/x86_64-slc6/include/c++/6.2.0/backward/build
^/lcg/contrib/gcc/6.2.0native/x86_64-slc6/include/c++/6.2.0/backward/c++config.h
^/lcg/contrib/gcc/6.2.0native/x86_64-slc6/include/c++/6.2.0/backward/char_traits.h
^/lcg/contrib/gcc/6.2.0native/x86_64-slc6/include/c++/6.2.0/backward/contrib
^/lcg/contrib/gcc/6.2.0native/x86_64-slc6/include/c++/6.2.0/backward/core
^/lcg/contrib/gcc/6.2.0native/x86_64-slc6/include/c++/6.2.0/backward/ctype.h
^/lcg/contrib/gcc/6.2.0native/x86_64-slc6/include/c++/6.2.0/backward/cvmfs
^/lcg/contrib/gcc/6.2.0native/x86_64-slc6/include/c++/6.2.0/backward/endian.h
^/lcg/contrib/gcc/6.2.0native/x86_64-slc6/include/c++/6.2.0/backward/errno.h
^/lcg/contrib/gcc/6.2.0native/x86_64-slc6/include/c++/6.2.0/backward/etc
^/lcg/contrib/gcc/6.2.0native/x86_64-slc6/include/c++/6.2.0/backward/execinfo.h
^/lcg/contrib/gcc/6.2.0native/x86_64-slc6/include/c++/6.2.0/backward/extend_interfaces.h
^/lcg/contrib/gcc/6.2.0native/x86_64-slc6/include/c++/6.2.0/backward/features.h
^/lcg/contrib/gcc/6.2.0native/x86_64-slc6/include/c++/6.2.0/backward/float.h
^/lcg/contrib/gcc/6.2.0native/x86_64-slc6/include/c++/6.2.0/backward/gcc
^/lcg/contrib/gcc/6.2.0native/x86_64-slc6/include/c++/6.2.0/backward/gcc62
^/lcg/contrib/gcc/6.2.0native/x86_64-slc6/include/c++/6.2.0/backward/getMessageSvc.h
^/lcg/contrib/gcc/6.2.0native/x86_64-slc6/include/c++/6.2.0/backward/hashtable.h
^/lcg/contrib/gcc/6.2.0native/x86_64-slc6/include/c++/6.2.0/backward/implements.h
^/lcg/contrib/gcc/6.2.0native/x86_64-slc6/include/c++/6.2.0/backward/include
^/lcg/contrib/gcc/6.2.0native/x86_64-slc6/include/c++/6.2.0/backward/install
^/lcg/contrib/gcc/6.2.0native/x86_64-slc6/include/c++/6.2.0/backward/inttypes.h
^/lcg/contrib/gcc/6.2.0native/x86_64-slc6/include/c++/6.2.0/backward/ios_base.h
^/lcg/contrib/gcc/6.2.0native/x86_64-slc6/include/c++/6.2.0/backward/istream.tcc
^/lcg/contrib/gcc/6.2.0native/x86_64-slc6/include/c++/6.2.0/backward/jenkins
^/lcg/contrib/gcc/6.2.0native/x86_64-slc6/include/c++/6.2.0/backward/lcg
^/lcg/contrib/gcc/6.2.0native/x86_64-slc6/include/c++/6.2.0/backward/lcg_release_tar
^/lcg/contrib/gcc/6.2.0native/x86_64-slc6/include/c++/6.2.0/backward/lib
^/lcg/contrib/gcc/6.2.0native/x86_64-slc6/include/c++/6.2.0/backward/limits.h
^/lcg/contrib/gcc/6.2.0native/x86_64-slc6/include/c++/6.2.0/backward/locale_classes.h
^/lcg/contrib/gcc/6.2.0native/x86_64-slc6/include/c++/6.2.0/backward/malloc.h
^/lcg/contrib/gcc/6.2.0native/x86_64-slc6/include/c++/6.2.0/backward/math.h
^/lcg/contrib/gcc/6.2.0native/x86_64-slc6/include/c++/6.2.0/backward/mnt
^/lcg/contrib/gcc/6.2.0native/x86_64-slc6/include/c++/6.2.0/backward/numpy
^/lcg/contrib/gcc/6.2.0native/x86_64-slc6/include/c++/6.2.0/backward/numpy-1.11.0-py2.7-linux-x86_64.egg
^/lcg/contrib/gcc/6.2.0native/x86_64-slc6/include/c++/6.2.0/backward/numpyconfig.h
^/lcg/contrib/gcc/6.2.0native/x86_64-slc6/include/c++/6.2.0/backward/projects
^/lcg/contrib/gcc/6.2.0native/x86_64-slc6/include/c++/6.2.0/backward/pthread.h
^/lcg/contrib/gcc/6.2.0native/x86_64-slc6/include/c++/6.2.0/backward/python
^/lcg/contrib/gcc/6.2.0native/x86_64-slc6/include/c++/6.2.0/backward/python2.7
^/lcg/contrib/gcc/6.2.0native/x86_64-slc6/include/c++/6.2.0/backward/releases
^/lcg/contrib/gcc/6.2.0native/x86_64-slc6/include/c++/6.2.0/backward/repo
^/lcg/contrib/gcc/6.2.0native/x86_64-slc6/include/c++/6.2.0/backward/sched.h
^/lcg/contrib/gcc/6.2.0native/x86_64-slc6/include/c++/6.2.0/backward/sft.cern.ch
^/lcg/contrib/gcc/6.2.0native/x86_64-slc6/include/c++/6.2.0/backward/shared_ptr.h
^/lcg/contrib/gcc/6.2.0native/x86_64-slc6/include/c++/6.2.0/backward/shared_ptr_base.h
^/lcg/contrib/gcc/6.2.0native/x86_64-slc6/include/c++/6.2.0/backward/site-packages
^/lcg/contrib/gcc/6.2.0native/x86_64-slc6/include/c++/6.2.0/backward/slc6
^/lcg/contrib/gcc/6.2.0native/x86_64-slc6/include/c++/6.2.0/backward/software
^/lcg/contrib/gcc/6.2.0native/x86_64-slc6/include/c++/6.2.0/backward/src
^/lcg/contrib/gcc/6.2.0native/x86_64-slc6/include/c++/6.2.0/backward/sstream.tcc
^/lcg/contrib/gcc/6.2.0native/x86_64-slc6/include/c++/6.2.0/backward/std_mutex.h
^/lcg/contrib/gcc/6.2.0native/x86_64-slc6/include/c++/6.2.0/backward/stdarg.h
^/lcg/contrib/gcc/6.2.0native/x86_64-slc6/include/c++/6.2.0/backward/stddef.h
^/lcg/contrib/gcc/6.2.0native/x86_64-slc6/include/c++/6.2.0/backward/stdint.h
^/lcg/contrib/gcc/6.2.0native/x86_64-slc6/include/c++/6.2.0/backward/stdio.h
^/lcg/contrib/gcc/6.2.0native/x86_64-slc6/include/c++/6.2.0/backward/stl_algobase.h
^/lcg/contrib/gcc/6.2.0native/x86_64-slc6/include/c++/6.2.0/backward/stl_bvector.h
^/lcg/contrib/gcc/6.2.0native/x86_64-slc6/include/c++/6.2.0/backward/stl_iterator.h
^/lcg/contrib/gcc/6.2.0native/x86_64-slc6/include/c++/6.2.0/backward/stl_list.h
^/lcg/contrib/gcc/6.2.0native/x86_64-slc6/include/c++/6.2.0/backward/stl_pair.h
^/lcg/contrib/gcc/6.2.0native/x86_64-slc6/include/c++/6.2.0/backward/stl_tree.h
^/lcg/contrib/gcc/6.2.0native/x86_64-slc6/include/c++/6.2.0/backward/stl_vector.h
^/lcg/contrib/gcc/6.2.0native/x86_64-slc6/include/c++/6.2.0/backward/streambuf.tcc
^/lcg/contrib/gcc/6.2.0native/x86_64-slc6/include/c++/6.2.0/backward/string.h
^/lcg/contrib/gcc/6.2.0native/x86_64-slc6/include/c++/6.2.0/backward/strstream
^/lcg/contrib/gcc/6.2.0native/x86_64-slc6/include/c++/6.2.0/backward/sw
^/lcg/contrib/gcc/6.2.0native/x86_64-slc6/include/c++/6.2.0/backward/sys
^/lcg/contrib/gcc/6.2.0native/x86_64-slc6/include/c++/6.2.0/backward/time.h
^/lcg/contrib/gcc/6.2.0native/x86_64-slc6/include/c++/6.2.0/backward/tools
^/lcg/contrib/gcc/6.2.0native/x86_64-slc6/include/c++/6.2.0/backward/unique_ptr.h
^/lcg/contrib/gcc/6.2.0native/x86_64-slc6/include/c++/6.2.0/backward/unistd.h
^/lcg/contrib/gcc/6.2.0native/x86_64-slc6/include/c++/6.2.0/backward/wchar.h
^/lcg/contrib/gcc/6.2.0native/x86_64-slc6/include/c++/6.2.0/backward/workspace
^/lcg/contrib/gcc/6.2.0native/x86_64-slc6/include/c++/6.2.0/backward/x86_64-pc-linux-gnu
^/lcg/contrib/gcc/6.2.0native/x86_64-slc6/include/c++/6.2.0/backward/x86_64-slc6
^/lcg/contrib/gcc/6.2.0native/x86_64-slc6/include/c++/6.2.0/backward/x86_64-slc6-gcc62-opt
^/lcg/contrib/gcc/6.2.0native/x86_64-slc6/include/c++/6.2.0/backward
^/lcg/contrib/gcc/6.2.0native/x86_64-slc6/include/c++/6.2.0/basic_ios.h
^/lcg/contrib/gcc/6.2.0native/x86_64-slc6/include/c++/6.2.0/basic_ios.tcc
^/lcg/contrib/gcc/6.2.0native/x86_64-slc6/include/c++/6.2.0/bin
^/lcg/contrib/gcc/6.2.0native/x86_64-slc6/include/c++/6.2.0/bits/algorithmfwd.h
^/lcg/contrib/gcc/6.2.0native/x86_64-slc6/include/c++/6.2.0/bits/alloc_traits.h
^/lcg/contrib/gcc/6.2.0native/x86_64-slc6/include/c++/6.2.0/bits/allocated_ptr.h
^/lcg/contrib/gcc/6.2.0native/x86_64-slc6/include/c++/6.2.0/bits/allocator.h
^/lcg/contrib/gcc/6.2.0native/x86_64-slc6/include/c++/6.2.0/bits/atomic_base.h
^/lcg/contrib/gcc/6.2.0native/x86_64-slc6/include/c++/6.2.0/bits/atomic_futex.h
^/lcg/contrib/gcc/6.2.0native/x86_64-slc6/include/c++/6.2.0/bits/atomic_lockfree_defines.h
^/lcg/contrib/gcc/6.2.0native/x86_64-slc6/include/c++/6.2.0/bits/basic_ios.h
^/lcg/contrib/gcc/6.2.0native/x86_64-slc6/include/c++/6.2.0/bits/basic_ios.tcc
^/lcg/contrib/gcc/6.2.0native/x86_64-slc6/include/c++/6.2.0/bits/basic_string.h
^/lcg/contrib/gcc/6.2.0native/x86_64-slc6/include/c++/6.2.0/bits/basic_string.tcc
^/lcg/contrib/gcc/6.2.0native/x86_64-slc6/include/c++/6.2.0/bits/c++config.h
^/lcg/contrib/gcc/6.2.0native/x86_64-slc6/include/c++/6.2.0/bits/char_traits.h
^/lcg/contrib/gcc/6.2.0native/x86_64-slc6/include/c++/6.2.0/bits/codecvt.h
^/lcg/contrib/gcc/6.2.0native/x86_64-slc6/include/c++/6.2.0/bits/concept_check.h
^/lcg/contrib/gcc/6.2.0native/x86_64-slc6/include/c++/6.2.0/bits/cpp_type_traits.h
^/lcg/contrib/gcc/6.2.0native/x86_64-slc6/include/c++/6.2.0/bits/cxxabi_forced.h
^/lcg/contrib/gcc/6.2.0native/x86_64-slc6/include/c++/6.2.0/bits/deque.tcc
^/lcg/contrib/gcc/6.2.0native/x86_64-slc6/include/c++/6.2.0/bits/exception_defines.h
^/lcg/contrib/gcc/6.2.0native/x86_64-slc6/include/c++/6.2.0/bits/exception_ptr.h
^/lcg/contrib/gcc/6.2.0native/x86_64-slc6/include/c++/6.2.0/bits/forward_list.h
^/lcg/contrib/gcc/6.2.0native/x86_64-slc6/include/c++/6.2.0/bits/forward_list.tcc
^/lcg/contrib/gcc/6.2.0native/x86_64-slc6/include/c++/6.2.0/bits/fstream.tcc
^/lcg/contrib/gcc/6.2.0native/x86_64-slc6/include/c++/6.2.0/bits/functexcept.h
^/lcg/contrib/gcc/6.2.0native/x86_64-slc6/include/c++/6.2.0/bits/functional_hash.h
^/lcg/contrib/gcc/6.2.0native/x86_64-slc6/include/c++/6.2.0/bits/gslice.h
^/lcg/contrib/gcc/6.2.0native/x86_64-slc6/include/c++/6.2.0/bits/gslice_array.h
^/lcg/contrib/gcc/6.2.0native/x86_64-slc6/include/c++/6.2.0/bits/hash_bytes.h
^/lcg/contrib/gcc/6.2.0native/x86_64-slc6/include/c++/6.2.0/bits/hashtable.h
^/lcg/contrib/gcc/6.2.0native/x86_64-slc6/include/c++/6.2.0/bits/hashtable_policy.h
^/lcg/contrib/gcc/6.2.0native/x86_64-slc6/include/c++/6.2.0/bits/indirect_array.h
^/lcg/contrib/gcc/6.2.0native/x86_64-slc6/include/c++/6.2.0/bits/ios_base.h
^/lcg/contrib/gcc/6.2.0native/x86_64-slc6/include/c++/6.2.0/bits/istream.tcc
^/lcg/contrib/gcc/6.2.0native/x86_64-slc6/include/c++/6.2.0/bits/list.tcc
^/lcg/contrib/gcc/6.2.0native/x86_64-slc6/include/c++/6.2.0/bits/locale_classes.h
^/lcg/contrib/gcc/6.2.0native/x86_64-slc6/include/c++/6.2.0/bits/locale_classes.tcc
^/lcg/contrib/gcc/6.2.0native/x86_64-slc6/include/c++/6.2.0/bits/locale_conv.h
^/lcg/contrib/gcc/6.2.0native/x86_64-slc6/include/c++/6.2.0/bits/locale_facets.h
^/lcg/contrib/gcc/6.2.0native/x86_64-slc6/include/c++/6.2.0/bits/locale_facets.tcc
^/lcg/contrib/gcc/6.2.0native/x86_64-slc6/include/c++/6.2.0/bits/locale_facets_nonio.h
^/lcg/contrib/gcc/6.2.0native/x86_64-slc6/include/c++/6.2.0/bits/locale_facets_nonio.tcc
^/lcg/contrib/gcc/6.2.0native/x86_64-slc6/include/c++/6.2.0/bits/localefwd.h
^/lcg/contrib/gcc/6.2.0native/x86_64-slc6/include/c++/6.2.0/bits/mask_array.h
^/lcg/contrib/gcc/6.2.0native/x86_64-slc6/include/c++/6.2.0/bits/memoryfwd.h
^/lcg/contrib/gcc/6.2.0native/x86_64-slc6/include/c++/6.2.0/bits/move.h
^/lcg/contrib/gcc/6.2.0native/x86_64-slc6/include/c++/6.2.0/bits/nested_exception.h
^/lcg/contrib/gcc/6.2.0native/x86_64-slc6/include/c++/6.2.0/bits/ostream.tcc
^/lcg/contrib/gcc/6.2.0native/x86_64-slc6/include/c++/6.2.0/bits/ostream_insert.h
^/lcg/contrib/gcc/6.2.0native/x86_64-slc6/include/c++/6.2.0/bits/parse_numbers.h
^/lcg/contrib/gcc/6.2.0native/x86_64-slc6/include/c++/6.2.0/bits/postypes.h
^/lcg/contrib/gcc/6.2.0native/x86_64-slc6/include/c++/6.2.0/bits/predefined_ops.h
^/lcg/contrib/gcc/6.2.0native/x86_64-slc6/include/c++/6.2.0/bits/ptr_traits.h
^/lcg/contrib/gcc/6.2.0native/x86_64-slc6/include/c++/6.2.0/bits/quoted_string.h
^/lcg/contrib/gcc/6.2.0native/x86_64-slc6/include/c++/6.2.0/bits/random.h
^/lcg/contrib/gcc/6.2.0native/x86_64-slc6/include/c++/6.2.0/bits/random.tcc
^/lcg/contrib/gcc/6.2.0native/x86_64-slc6/include/c++/6.2.0/bits/range_access.h
^/lcg/contrib/gcc/6.2.0native/x86_64-slc6/include/c++/6.2.0/bits/regex.h
^/lcg/contrib/gcc/6.2.0native/x86_64-slc6/include/c++/6.2.0/bits/regex.tcc
^/lcg/contrib/gcc/6.2.0native/x86_64-slc6/include/c++/6.2.0/bits/regex_automaton.h
^/lcg/contrib/gcc/6.2.0native/x86_64-slc6/include/c++/6.2.0/bits/regex_automaton.tcc
^/lcg/contrib/gcc/6.2.0native/x86_64-slc6/include/c++/6.2.0/bits/regex_compiler.h
^/lcg/contrib/gcc/6.2.0native/x86_64-slc6/include/c++/6.2.0/bits/regex_compiler.tcc
^/lcg/contrib/gcc/6.2.0native/x86_64-slc6/include/c++/6.2.0/bits/regex_constants.h
^/lcg/contrib/gcc/6.2.0native/x86_64-slc6/include/c++/6.2.0/bits/regex_error.h
^/lcg/contrib/gcc/6.2.0native/x86_64-slc6/include/c++/6.2.0/bits/regex_executor.h
^/lcg/contrib/gcc/6.2.0native/x86_64-slc6/include/c++/6.2.0/bits/regex_executor.tcc
^/lcg/contrib/gcc/6.2.0native/x86_64-slc6/include/c++/6.2.0/bits/regex_scanner.h
^/lcg/contrib/gcc/6.2.0native/x86_64-slc6/include/c++/6.2.0/bits/regex_scanner.tcc
^/lcg/contrib/gcc/6.2.0native/x86_64-slc6/include/c++/6.2.0/bits/shared_ptr.h
^/lcg/contrib/gcc/6.2.0native/x86_64-slc6/include/c++/6.2.0/bits/shared_ptr_atomic.h
^/lcg/contrib/gcc/6.2.0native/x86_64-slc6/include/c++/6.2.0/bits/shared_ptr_base.h
^/lcg/contrib/gcc/6.2.0native/x86_64-slc6/include/c++/6.2.0/bits/slice_array.h
^/lcg/contrib/gcc/6.2.0native/x86_64-slc6/include/c++/6.2.0/bits/sstream.tcc
^/lcg/contrib/gcc/6.2.0native/x86_64-slc6/include/c++/6.2.0/bits/stat.h
^/lcg/contrib/gcc/6.2.0native/x86_64-slc6/include/c++/6.2.0/bits/std_mutex.h
^/lcg/contrib/gcc/6.2.0native/x86_64-slc6/include/c++/6.2.0/bits/stl_algo.h
^/lcg/contrib/gcc/6.2.0native/x86_64-slc6/include/c++/6.2.0/bits/stl_algobase.h
^/lcg/contrib/gcc/6.2.0native/x86_64-slc6/include/c++/6.2.0/bits/stl_bvector.h
^/lcg/contrib/gcc/6.2.0native/x86_64-slc6/include/c++/6.2.0/bits/stl_construct.h
^/lcg/contrib/gcc/6.2.0native/x86_64-slc6/include/c++/6.2.0/bits/stl_deque.h
^/lcg/contrib/gcc/6.2.0native/x86_64-slc6/include/c++/6.2.0/bits/stl_function.h
^/lcg/contrib/gcc/6.2.0native/x86_64-slc6/include/c++/6.2.0/bits/stl_heap.h
^/lcg/contrib/gcc/6.2.0native/x86_64-slc6/include/c++/6.2.0/bits/stl_iterator.h
^/lcg/contrib/gcc/6.2.0native/x86_64-slc6/include/c++/6.2.0/bits/stl_iterator_base_funcs.h
^/lcg/contrib/gcc/6.2.0native/x86_64-slc6/include/c++/6.2.0/bits/stl_iterator_base_types.h
^/lcg/contrib/gcc/6.2.0native/x86_64-slc6/include/c++/6.2.0/bits/stl_list.h
^/lcg/contrib/gcc/6.2.0native/x86_64-slc6/include/c++/6.2.0/bits/stl_map.h
^/lcg/contrib/gcc/6.2.0native/x86_64-slc6/include/c++/6.2.0/bits/stl_multimap.h
^/lcg/contrib/gcc/6.2.0native/x86_64-slc6/include/c++/6.2.0/bits/stl_multiset.h
^/lcg/contrib/gcc/6.2.0native/x86_64-slc6/include/c++/6.2.0/bits/stl_numeric.h
^/lcg/contrib/gcc/6.2.0native/x86_64-slc6/include/c++/6.2.0/bits/stl_pair.h
^/lcg/contrib/gcc/6.2.0native/x86_64-slc6/include/c++/6.2.0/bits/stl_queue.h
^/lcg/contrib/gcc/6.2.0native/x86_64-slc6/include/c++/6.2.0/bits/stl_raw_storage_iter.h
^/lcg/contrib/gcc/6.2.0native/x86_64-slc6/include/c++/6.2.0/bits/stl_relops.h
^/lcg/contrib/gcc/6.2.0native/x86_64-slc6/include/c++/6.2.0/bits/stl_set.h
^/lcg/contrib/gcc/6.2.0native/x86_64-slc6/include/c++/6.2.0/bits/stl_stack.h
^/lcg/contrib/gcc/6.2.0native/x86_64-slc6/include/c++/6.2.0/bits/stl_tempbuf.h
^/lcg/contrib/gcc/6.2.0native/x86_64-slc6/include/c++/6.2.0/bits/stl_tree.h
^/lcg/contrib/gcc/6.2.0native/x86_64-slc6/include/c++/6.2.0/bits/stl_uninitialized.h
^/lcg/contrib/gcc/6.2.0native/x86_64-slc6/include/c++/6.2.0/bits/stl_vector.h
^/lcg/contrib/gcc/6.2.0native/x86_64-slc6/include/c++/6.2.0/bits/stream_iterator.h
^/lcg/contrib/gcc/6.2.0native/x86_64-slc6/include/c++/6.2.0/bits/streambuf.tcc
^/lcg/contrib/gcc/6.2.0native/x86_64-slc6/include/c++/6.2.0/bits/streambuf_iterator.h
^/lcg/contrib/gcc/6.2.0native/x86_64-slc6/include/c++/6.2.0/bits/stringfwd.h
^/lcg/contrib/gcc/6.2.0native/x86_64-slc6/include/c++/6.2.0/bits/syscall.h
^/lcg/contrib/gcc/6.2.0native/x86_64-slc6/include/c++/6.2.0/bits/time.h
^/lcg/contrib/gcc/6.2.0native/x86_64-slc6/include/c++/6.2.0/bits/types.h
^/lcg/contrib/gcc/6.2.0native/x86_64-slc6/include/c++/6.2.0/bits/uniform_int_dist.h
^/lcg/contrib/gcc/6.2.0native/x86_64-slc6/include/c++/6.2.0/bits/unique_ptr.h
^/lcg/contrib/gcc/6.2.0native/x86_64-slc6/include/c++/6.2.0/bits/unordered_map.h
^/lcg/contrib/gcc/6.2.0native/x86_64-slc6/include/c++/6.2.0/bits/unordered_set.h
^/lcg/contrib/gcc/6.2.0native/x86_64-slc6/include/c++/6.2.0/bits/uses_allocator.h
^/lcg/contrib/gcc/6.2.0native/x86_64-slc6/include/c++/6.2.0/bits/valarray_after.h
^/lcg/contrib/gcc/6.2.0native/x86_64-slc6/include/c++/6.2.0/bits/valarray_array.h
^/lcg/contrib/gcc/6.2.0native/x86_64-slc6/include/c++/6.2.0/bits/valarray_array.tcc
^/lcg/contrib/gcc/6.2.0native/x86_64-slc6/include/c++/6.2.0/bits/valarray_before.h
^/lcg/contrib/gcc/6.2.0native/x86_64-slc6/include/c++/6.2.0/bits/vector.tcc
^/lcg/contrib/gcc/6.2.0native/x86_64-slc6/include/c++/6.2.0/bits/wordsize.h
^/lcg/contrib/gcc/6.2.0native/x86_64-slc6/include/c++/6.2.0/bits
^/lcg/contrib/gcc/6.2.0native/x86_64-slc6/include/c++/6.2.0/bitset
^/lcg/contrib/gcc/6.2.0native/x86_64-slc6/include/c++/6.2.0/build
^/lcg/contrib/gcc/6.2.0native/x86_64-slc6/include/c++/6.2.0/c++config.h
^/lcg/contrib/gcc/6.2.0native/x86_64-slc6/include/c++/6.2.0/cassert
^/lcg/contrib/gcc/6.2.0native/x86_64-slc6/include/c++/6.2.0/ccomplex
^/lcg/contrib/gcc/6.2.0native/x86_64-slc6/include/c++/6.2.0/cctype
^/lcg/contrib/gcc/6.2.0native/x86_64-slc6/include/c++/6.2.0/cerrno
^/lcg/contrib/gcc/6.2.0native/x86_64-slc6/include/c++/6.2.0/cfenv
^/lcg/contrib/gcc/6.2.0native/x86_64-slc6/include/c++/6.2.0/cfloat
^/lcg/contrib/gcc/6.2.0native/x86_64-slc6/include/c++/6.2.0/char_traits.h
^/lcg/contrib/gcc/6.2.0native/x86_64-slc6/include/c++/6.2.0/chrono
^/lcg/contrib/gcc/6.2.0native/x86_64-slc6/include/c++/6.2.0/cinttypes
^/lcg/contrib/gcc/6.2.0native/x86_64-slc6/include/c++/6.2.0/ciso646
^/lcg/contrib/gcc/6.2.0native/x86_64-slc6/include/c++/6.2.0/climits
^/lcg/contrib/gcc/6.2.0native/x86_64-slc6/include/c++/6.2.0/clocale
^/lcg/contrib/gcc/6.2.0native/x86_64-slc6/include/c++/6.2.0/cmath
^/lcg/contrib/gcc/6.2.0native/x86_64-slc6/include/c++/6.2.0/codecvt
^/lcg/contrib/gcc/6.2.0native/x86_64-slc6/include/c++/6.2.0/complex
^/lcg/contrib/gcc/6.2.0native/x86_64-slc6/include/c++/6.2.0/condition_variable
^/lcg/contrib/gcc/6.2.0native/x86_64-slc6/include/c++/6.2.0/contrib
^/lcg/contrib/gcc/6.2.0native/x86_64-slc6/include/c++/6.2.0/core
^/lcg/contrib/gcc/6.2.0native/x86_64-slc6/include/c++/6.2.0/csetjmp
^/lcg/contrib/gcc/6.2.0native/x86_64-slc6/include/c++/6.2.0/csignal
^/lcg/contrib/gcc/6.2.0native/x86_64-slc6/include/c++/6.2.0/cstdalign
^/lcg/contrib/gcc/6.2.0native/x86_64-slc6/include/c++/6.2.0/cstdarg
^/lcg/contrib/gcc/6.2.0native/x86_64-slc6/include/c++/6.2.0/cstdbool
^/lcg/contrib/gcc/6.2.0native/x86_64-slc6/include/c++/6.2.0/cstddef
^/lcg/contrib/gcc/6.2.0native/x86_64-slc6/include/c++/6.2.0/cstdint
^/lcg/contrib/gcc/6.2.0native/x86_64-slc6/include/c++/6.2.0/cstdio
^/lcg/contrib/gcc/6.2.0native/x86_64-slc6/include/c++/6.2.0/cstdlib
^/lcg/contrib/gcc/6.2.0native/x86_64-slc6/include/c++/6.2.0/cstring
^/lcg/contrib/gcc/6.2.0native/x86_64-slc6/include/c++/6.2.0/ctgmath
^/lcg/contrib/gcc/6.2.0native/x86_64-slc6/include/c++/6.2.0/ctime
^/lcg/contrib/gcc/6.2.0native/x86_64-slc6/include/c++/6.2.0/ctype.h
^/lcg/contrib/gcc/6.2.0native/x86_64-slc6/include/c++/6.2.0/cuchar
^/lcg/contrib/gcc/6.2.0native/x86_64-slc6/include/c++/6.2.0/cvmfs
^/lcg/contrib/gcc/6.2.0native/x86_64-slc6/include/c++/6.2.0/cwchar
^/lcg/contrib/gcc/6.2.0native/x86_64-slc6/include/c++/6.2.0/cwctype
^/lcg/contrib/gcc/6.2.0native/x86_64-slc6/include/c++/6.2.0/cxxabi.h
^/lcg/contrib/gcc/6.2.0native/x86_64-slc6/include/c++/6.2.0/debug/assertions.h
^/lcg/contrib/gcc/6.2.0native/x86_64-slc6/include/c++/6.2.0/debug/debug.h
^/lcg/contrib/gcc/6.2.0native/x86_64-slc6/include/c++/6.2.0/debug
^/lcg/contrib/gcc/6.2.0native/x86_64-slc6/include/c++/6.2.0/deque
^/lcg/contrib/gcc/6.2.0native/x86_64-slc6/include/c++/6.2.0/endian.h
^/lcg/contrib/gcc/6.2.0native/x86_64-slc6/include/c++/6.2.0/errno.h
^/lcg/contrib/gcc/6.2.0native/x86_64-slc6/include/c++/6.2.0/etc
^/lcg/contrib/gcc/6.2.0native/x86_64-slc6/include/c++/6.2.0/exception
^/lcg/contrib/gcc/6.2.0native/x86_64-slc6/include/c++/6.2.0/execinfo.h
^/lcg/contrib/gcc/6.2.0native/x86_64-slc6/include/c++/6.2.0/experimental/any
^/lcg/contrib/gcc/6.2.0native/x86_64-slc6/include/c++/6.2.0/experimental/bits/string_view.tcc
^/lcg/contrib/gcc/6.2.0native/x86_64-slc6/include/c++/6.2.0/experimental/bits
^/lcg/contrib/gcc/6.2.0native/x86_64-slc6/include/c++/6.2.0/experimental/string_view
^/lcg/contrib/gcc/6.2.0native/x86_64-slc6/include/c++/6.2.0/experimental
^/lcg/contrib/gcc/6.2.0native/x86_64-slc6/include/c++/6.2.0/ext/aligned_buffer.h
^/lcg/contrib/gcc/6.2.0native/x86_64-slc6/include/c++/6.2.0/ext/alloc_traits.h
^/lcg/contrib/gcc/6.2.0native/x86_64-slc6/include/c++/6.2.0/ext/atomicity.h
^/lcg/contrib/gcc/6.2.0native/x86_64-slc6/include/c++/6.2.0/ext/concurrence.h
^/lcg/contrib/gcc/6.2.0native/x86_64-slc6/include/c++/6.2.0/ext/new_allocator.h
^/lcg/contrib/gcc/6.2.0native/x86_64-slc6/include/c++/6.2.0/ext/numeric_traits.h
^/lcg/contrib/gcc/6.2.0native/x86_64-slc6/include/c++/6.2.0/ext/string_conversions.h
^/lcg/contrib/gcc/6.2.0native/x86_64-slc6/include/c++/6.2.0/ext/type_traits.h
^/lcg/contrib/gcc/6.2.0native/x86_64-slc6/include/c++/6.2.0/ext
^/lcg/contrib/gcc/6.2.0native/x86_64-slc6/include/c++/6.2.0/extend_interfaces.h
^/lcg/contrib/gcc/6.2.0native/x86_64-slc6/include/c++/6.2.0/features.h
^/lcg/contrib/gcc/6.2.0native/x86_64-slc6/include/c++/6.2.0/fenv.h
^/lcg/contrib/gcc/6.2.0native/x86_64-slc6/include/c++/6.2.0/float.h
^/lcg/contrib/gcc/6.2.0native/x86_64-slc6/include/c++/6.2.0/forward_list
^/lcg/contrib/gcc/6.2.0native/x86_64-slc6/include/c++/6.2.0/fstream
^/lcg/contrib/gcc/6.2.0native/x86_64-slc6/include/c++/6.2.0/functional
^/lcg/contrib/gcc/6.2.0native/x86_64-slc6/include/c++/6.2.0/future
^/lcg/contrib/gcc/6.2.0native/x86_64-slc6/include/c++/6.2.0/gcc
^/lcg/contrib/gcc/6.2.0native/x86_64-slc6/include/c++/6.2.0/gcc62
^/lcg/contrib/gcc/6.2.0native/x86_64-slc6/include/c++/6.2.0/getMessageSvc.h
^/lcg/contrib/gcc/6.2.0native/x86_64-slc6/include/c++/6.2.0/hashtable.h
^/lcg/contrib/gcc/6.2.0native/x86_64-slc6/include/c++/6.2.0/implements.h
^/lcg/contrib/gcc/6.2.0native/x86_64-slc6/include/c++/6.2.0/include
^/lcg/contrib/gcc/6.2.0native/x86_64-slc6/include/c++/6.2.0/initializer_list
^/lcg/contrib/gcc/6.2.0native/x86_64-slc6/include/c++/6.2.0/install
^/lcg/contrib/gcc/6.2.0native/x86_64-slc6/include/c++/6.2.0/inttypes.h
^/lcg/contrib/gcc/6.2.0native/x86_64-slc6/include/c++/6.2.0/iomanip
^/lcg/contrib/gcc/6.2.0native/x86_64-slc6/include/c++/6.2.0/ios
^/lcg/contrib/gcc/6.2.0native/x86_64-slc6/include/c++/6.2.0/ios_base.h
^/lcg/contrib/gcc/6.2.0native/x86_64-slc6/include/c++/6.2.0/iosfwd
^/lcg/contrib/gcc/6.2.0native/x86_64-slc6/include/c++/6.2.0/iostream
^/lcg/contrib/gcc/6.2.0native/x86_64-slc6/include/c++/6.2.0/istream
^/lcg/contrib/gcc/6.2.0native/x86_64-slc6/include/c++/6.2.0/istream.tcc
^/lcg/contrib/gcc/6.2.0native/x86_64-slc6/include/c++/6.2.0/iterator
^/lcg/contrib/gcc/6.2.0native/x86_64-slc6/include/c++/6.2.0/jenkins
^/lcg/contrib/gcc/6.2.0native/x86_64-slc6/include/c++/6.2.0/lcg
^/lcg/contrib/gcc/6.2.0native/x86_64-slc6/include/c++/6.2.0/lcg_release_tar
^/lcg/contrib/gcc/6.2.0native/x86_64-slc6/include/c++/6.2.0/lib
^/lcg/contrib/gcc/6.2.0native/x86_64-slc6/include/c++/6.2.0/limits
^/lcg/contrib/gcc/6.2.0native/x86_64-slc6/include/c++/6.2.0/limits.h
^/lcg/contrib/gcc/6.2.0native/x86_64-slc6/include/c++/6.2.0/list
^/lcg/contrib/gcc/6.2.0native/x86_64-slc6/include/c++/6.2.0/locale
^/lcg/contrib/gcc/6.2.0native/x86_64-slc6/include/c++/6.2.0/locale_classes.h
^/lcg/contrib/gcc/6.2.0native/x86_64-slc6/include/c++/6.2.0/malloc.h
^/lcg/contrib/gcc/6.2.0native/x86_64-slc6/include/c++/6.2.0/map
^/lcg/contrib/gcc/6.2.0native/x86_64-slc6/include/c++/6.2.0/math.h
^/lcg/contrib/gcc/6.2.0native/x86_64-slc6/include/c++/6.2.0/memory
^/lcg/contrib/gcc/6.2.0native/x86_64-slc6/include/c++/6.2.0/mnt
^/lcg/contrib/gcc/6.2.0native/x86_64-slc6/include/c++/6.2.0/mutex
^/lcg/contrib/gcc/6.2.0native/x86_64-slc6/include/c++/6.2.0/new
^/lcg/contrib/gcc/6.2.0native/x86_64-slc6/include/c++/6.2.0/numeric
^/lcg/contrib/gcc/6.2.0native/x86_64-slc6/include/c++/6.2.0/numpy
^/lcg/contrib/gcc/6.2.0native/x86_64-slc6/include/c++/6.2.0/numpy-1.11.0-py2.7-linux-x86_64.egg
^/lcg/contrib/gcc/6.2.0native/x86_64-slc6/include/c++/6.2.0/numpyconfig.h
^/lcg/contrib/gcc/6.2.0native/x86_64-slc6/include/c++/6.2.0/ostream
^/lcg/contrib/gcc/6.2.0native/x86_64-slc6/include/c++/6.2.0/projects
^/lcg/contrib/gcc/6.2.0native/x86_64-slc6/include/c++/6.2.0/pthread.h
^/lcg/contrib/gcc/6.2.0native/x86_64-slc6/include/c++/6.2.0/python
^/lcg/contrib/gcc/6.2.0native/x86_64-slc6/include/c++/6.2.0/python2.7
^/lcg/contrib/gcc/6.2.0native/x86_64-slc6/include/c++/6.2.0/queue
^/lcg/contrib/gcc/6.2.0native/x86_64-slc6/include/c++/6.2.0/random
^/lcg/contrib/gcc/6.2.0native/x86_64-slc6/include/c++/6.2.0/ratio
^/lcg/contrib/gcc/6.2.0native/x86_64-slc6/include/c++/6.2.0/regex
^/lcg/contrib/gcc/6.2.0native/x86_64-slc6/include/c++/6.2.0/releases
^/lcg/contrib/gcc/6.2.0native/x86_64-slc6/include/c++/6.2.0/repo
^/lcg/contrib/gcc/6.2.0native/x86_64-slc6/include/c++/6.2.0/sched.h
^/lcg/contrib/gcc/6.2.0native/x86_64-slc6/include/c++/6.2.0/scoped_allocator
^/lcg/contrib/gcc/6.2.0native/x86_64-slc6/include/c++/6.2.0/set
^/lcg/contrib/gcc/6.2.0native/x86_64-slc6/include/c++/6.2.0/sft.cern.ch
^/lcg/contrib/gcc/6.2.0native/x86_64-slc6/include/c++/6.2.0/shared_mutex
^/lcg/contrib/gcc/6.2.0native/x86_64-slc6/include/c++/6.2.0/shared_ptr.h
^/lcg/contrib/gcc/6.2.0native/x86_64-slc6/include/c++/6.2.0/shared_ptr_base.h
^/lcg/contrib/gcc/6.2.0native/x86_64-slc6/include/c++/6.2.0/site-packages
^/lcg/contrib/gcc/6.2.0native/x86_64-slc6/include/c++/6.2.0/slc6
^/lcg/contrib/gcc/6.2.0native/x86_64-slc6/include/c++/6.2.0/software
^/lcg/contrib/gcc/6.2.0native/x86_64-slc6/include/c++/6.2.0/src
^/lcg/contrib/gcc/6.2.0native/x86_64-slc6/include/c++/6.2.0/sstream
^/lcg/contrib/gcc/6.2.0native/x86_64-slc6/include/c++/6.2.0/sstream.tcc
^/lcg/contrib/gcc/6.2.0native/x86_64-slc6/include/c++/6.2.0/stack
^/lcg/contrib/gcc/6.2.0native/x86_64-slc6/include/c++/6.2.0/std_mutex.h
^/lcg/contrib/gcc/6.2.0native/x86_64-slc6/include/c++/6.2.0/stdarg.h
^/lcg/contrib/gcc/6.2.0native/x86_64-slc6/include/c++/6.2.0/stddef.h
^/lcg/contrib/gcc/6.2.0native/x86_64-slc6/include/c++/6.2.0/stdexcept
^/lcg/contrib/gcc/6.2.0native/x86_64-slc6/include/c++/6.2.0/stdint.h
^/lcg/contrib/gcc/6.2.0native/x86_64-slc6/include/c++/6.2.0/stdio.h
^/lcg/contrib/gcc/6.2.0native/x86_64-slc6/include/c++/6.2.0/stdlib.h
^/lcg/contrib/gcc/6.2.0native/x86_64-slc6/include/c++/6.2.0/stl_algobase.h
^/lcg/contrib/gcc/6.2.0native/x86_64-slc6/include/c++/6.2.0/stl_bvector.h
^/lcg/contrib/gcc/6.2.0native/x86_64-slc6/include/c++/6.2.0/stl_iterator.h
^/lcg/contrib/gcc/6.2.0native/x86_64-slc6/include/c++/6.2.0/stl_list.h
^/lcg/contrib/gcc/6.2.0native/x86_64-slc6/include/c++/6.2.0/stl_pair.h
^/lcg/contrib/gcc/6.2.0native/x86_64-slc6/include/c++/6.2.0/stl_tree.h
^/lcg/contrib/gcc/6.2.0native/x86_64-slc6/include/c++/6.2.0/stl_vector.h
^/lcg/contrib/gcc/6.2.0native/x86_64-slc6/include/c++/6.2.0/streambuf
^/lcg/contrib/gcc/6.2.0native/x86_64-slc6/include/c++/6.2.0/streambuf.tcc
^/lcg/contrib/gcc/6.2.0native/x86_64-slc6/include/c++/6.2.0/string
^/lcg/contrib/gcc/6.2.0native/x86_64-slc6/include/c++/6.2.0/string.h
^/lcg/contrib/gcc/6.2.0native/x86_64-slc6/include/c++/6.2.0/sw
^/lcg/contrib/gcc/6.2.0native/x86_64-slc6/include/c++/6.2.0/sys
^/lcg/contrib/gcc/6.2.0native/x86_64-slc6/include/c++/6.2.0/system_error
^/lcg/contrib/gcc/6.2.0native/x86_64-slc6/include/c++/6.2.0/thread
^/lcg/contrib/gcc/6.2.0native/x86_64-slc6/include/c++/6.2.0/time.h
^/lcg/contrib/gcc/6.2.0native/x86_64-slc6/include/c++/6.2.0/tools
^/lcg/contrib/gcc/6.2.0native/x86_64-slc6/include/c++/6.2.0/tuple
^/lcg/contrib/gcc/6.2.0native/x86_64-slc6/include/c++/6.2.0/type_traits
^/lcg/contrib/gcc/6.2.0native/x86_64-slc6/include/c++/6.2.0/typeindex
^/lcg/contrib/gcc/6.2.0native/x86_64-slc6/include/c++/6.2.0/typeinfo
^/lcg/contrib/gcc/6.2.0native/x86_64-slc6/include/c++/6.2.0/unique_ptr.h
^/lcg/contrib/gcc/6.2.0native/x86_64-slc6/include/c++/6.2.0/unistd.h
^/lcg/contrib/gcc/6.2.0native/x86_64-slc6/include/c++/6.2.0/unordered_map
^/lcg/contrib/gcc/6.2.0native/x86_64-slc6/include/c++/6.2.0/unordered_set
^/lcg/contrib/gcc/6.2.0native/x86_64-slc6/include/c++/6.2.0/utility
^/lcg/contrib/gcc/6.2.0native/x86_64-slc6/include/c++/6.2.0/valarray
^/lcg/contrib/gcc/6.2.0native/x86_64-slc6/include/c++/6.2.0/vector
^/lcg/contrib/gcc/6.2.0native/x86_64-slc6/include/c++/6.2.0/wchar.h
^/lcg/contrib/gcc/6.2.0native/x86_64-slc6/include/c++/6.2.0/workspace
^/lcg/contrib/gcc/6.2.0native/x86_64-slc6/include/c++/6.2.0/x86_64-pc-linux-gnu/1.11.0
^/lcg/contrib/gcc/6.2.0native/x86_64-slc6/include/c++/6.2.0/x86_64-pc-linux-gnu/21.0
^/lcg/contrib/gcc/6.2.0native/x86_64-slc6/include/c++/6.2.0/x86_64-pc-linux-gnu/21.0.15
^/lcg/contrib/gcc/6.2.0native/x86_64-slc6/include/c++/6.2.0/x86_64-pc-linux-gnu/3_1_6
^/lcg/contrib/gcc/6.2.0native/x86_64-slc6/include/c++/6.2.0/x86_64-pc-linux-gnu/6.08.02
^/lcg/contrib/gcc/6.2.0native/x86_64-slc6/include/c++/6.2.0/x86_64-pc-linux-gnu/6.08.02-99084
^/lcg/contrib/gcc/6.2.0native/x86_64-slc6/include/c++/6.2.0/x86_64-pc-linux-gnu/6.2.0
^/lcg/contrib/gcc/6.2.0native/x86_64-slc6/include/c++/6.2.0/x86_64-pc-linux-gnu/6.2.0native
^/lcg/contrib/gcc/6.2.0native/x86_64-slc6/include/c++/6.2.0/x86_64-pc-linux-gnu/<<< cling interactive line includer >>>
^/lcg/contrib/gcc/6.2.0native/x86_64-slc6/include/c++/6.2.0/x86_64-pc-linux-gnu/Arena.h
^/lcg/contrib/gcc/6.2.0native/x86_64-slc6/include/c++/6.2.0/x86_64-pc-linux-gnu/ArenaAllocatorBase.h
^/lcg/contrib/gcc/6.2.0native/x86_64-slc6/include/c++/6.2.0/x86_64-pc-linux-gnu/ArenaBase.h
^/lcg/contrib/gcc/6.2.0native/x86_64-slc6/include/c++/6.2.0/x86_64-pc-linux-gnu/AtlasCore
^/lcg/contrib/gcc/6.2.0native/x86_64-slc6/include/c++/6.2.0/x86_64-pc-linux-gnu/AttributeList.h
^/lcg/contrib/gcc/6.2.0native/x86_64-slc6/include/c++/6.2.0/x86_64-pc-linux-gnu/AuxVectorData.h
^/lcg/contrib/gcc/6.2.0native/x86_64-slc6/include/c++/6.2.0/x86_64-pc-linux-gnu/BUILDTYPE
^/lcg/contrib/gcc/6.2.0native/x86_64-slc6/include/c++/6.2.0/x86_64-pc-linux-gnu/Blob.h
^/lcg/contrib/gcc/6.2.0native/x86_64-slc6/include/c++/6.2.0/x86_64-pc-linux-gnu/COMPILER
^/lcg/contrib/gcc/6.2.0native/x86_64-slc6/include/c++/6.2.0/x86_64-pc-linux-gnu/COOL
^/lcg/contrib/gcc/6.2.0native/x86_64-slc6/include/c++/6.2.0/x86_64-pc-linux-gnu/CORAL
^/lcg/contrib/gcc/6.2.0native/x86_64-slc6/include/c++/6.2.0/x86_64-pc-linux-gnu/CallbackStreamBuf.h
^/lcg/contrib/gcc/6.2.0native/x86_64-slc6/include/c++/6.2.0/x86_64-pc-linux-gnu/ChannelSelection.h
^/lcg/contrib/gcc/6.2.0native/x86_64-slc6/include/c++/6.2.0/x86_64-pc-linux-gnu/CommonMessaging.h
^/lcg/contrib/gcc/6.2.0native/x86_64-slc6/include/c++/6.2.0/x86_64-pc-linux-gnu/DatabaseSvcFactory.h
^/lcg/contrib/gcc/6.2.0native/x86_64-slc6/include/c++/6.2.0/x86_64-pc-linux-gnu/EventIDBase.h
^/lcg/contrib/gcc/6.2.0native/x86_64-slc6/include/c++/6.2.0/x86_64-pc-linux-gnu/FolderSpecification.h
^/lcg/contrib/gcc/6.2.0native/x86_64-slc6/include/c++/6.2.0/x86_64-pc-linux-gnu/FolderVersioning.h
^/lcg/contrib/gcc/6.2.0native/x86_64-slc6/include/c++/6.2.0/x86_64-pc-linux-gnu/GAUDI
^/lcg/contrib/gcc/6.2.0native/x86_64-slc6/include/c++/6.2.0/x86_64-pc-linux-gnu/GaudiHandle.h
^/lcg/contrib/gcc/6.2.0native/x86_64-slc6/include/c++/6.2.0/x86_64-pc-linux-gnu/IComponentManager.h
^/lcg/contrib/gcc/6.2.0native/x86_64-slc6/include/c++/6.2.0/x86_64-pc-linux-gnu/IDataHandleHolder.h
^/lcg/contrib/gcc/6.2.0native/x86_64-slc6/include/c++/6.2.0/x86_64-pc-linux-gnu/IDatabase.h
^/lcg/contrib/gcc/6.2.0native/x86_64-slc6/include/c++/6.2.0/x86_64-pc-linux-gnu/IDatabaseSvc.h
^/lcg/contrib/gcc/6.2.0native/x86_64-slc6/include/c++/6.2.0/x86_64-pc-linux-gnu/IField.h
^/lcg/contrib/gcc/6.2.0native/x86_64-slc6/include/c++/6.2.0/x86_64-pc-linux-gnu/IFieldSpecification.h
^/lcg/contrib/gcc/6.2.0native/x86_64-slc6/include/c++/6.2.0/x86_64-pc-linux-gnu/IFolder.h
^/lcg/contrib/gcc/6.2.0native/x86_64-slc6/include/c++/6.2.0/x86_64-pc-linux-gnu/IFolderSpecification.h
^/lcg/contrib/gcc/6.2.0native/x86_64-slc6/include/c++/6.2.0/x86_64-pc-linux-gnu/IHiveStoreMgr.h
^/lcg/contrib/gcc/6.2.0native/x86_64-slc6/include/c++/6.2.0/x86_64-pc-linux-gnu/IHvsNode.h
^/lcg/contrib/gcc/6.2.0native/x86_64-slc6/include/c++/6.2.0/x86_64-pc-linux-gnu/IHvsNodeRecord.h
^/lcg/contrib/gcc/6.2.0native/x86_64-slc6/include/c++/6.2.0/x86_64-pc-linux-gnu/IInterface.h
^/lcg/contrib/gcc/6.2.0native/x86_64-slc6/include/c++/6.2.0/x86_64-pc-linux-gnu/IObject.h
^/lcg/contrib/gcc/6.2.0native/x86_64-slc6/include/c++/6.2.0/x86_64-pc-linux-gnu/IObjectIterator.h
^/lcg/contrib/gcc/6.2.0native/x86_64-slc6/include/c++/6.2.0/x86_64-pc-linux-gnu/IPyComponent.h
^/lcg/contrib/gcc/6.2.0native/x86_64-slc6/include/c++/6.2.0/x86_64-pc-linux-gnu/IRecord.h
^/lcg/contrib/gcc/6.2.0native/x86_64-slc6/include/c++/6.2.0/x86_64-pc-linux-gnu/IRecordIterator.h
^/lcg/contrib/gcc/6.2.0native/x86_64-slc6/include/c++/6.2.0/x86_64-pc-linux-gnu/IRecordSelection.h
^/lcg/contrib/gcc/6.2.0native/x86_64-slc6/include/c++/6.2.0/x86_64-pc-linux-gnu/IRecordSpecification.h
^/lcg/contrib/gcc/6.2.0native/x86_64-slc6/include/c++/6.2.0/x86_64-pc-linux-gnu/IRegisterTransient.h
^/lcg/contrib/gcc/6.2.0native/x86_64-slc6/include/c++/6.2.0/x86_64-pc-linux-gnu/ITime.h
^/lcg/contrib/gcc/6.2.0native/x86_64-slc6/include/c++/6.2.0/x86_64-pc-linux-gnu/InstallArea
^/lcg/contrib/gcc/6.2.0native/x86_64-slc6/include/c++/6.2.0/x86_64-pc-linux-gnu/IsMostDerivedFlag.h
^/lcg/contrib/gcc/6.2.0native/x86_64-slc6/include/c++/6.2.0/x86_64-pc-linux-gnu/LABEL
^/lcg/contrib/gcc/6.2.0native/x86_64-slc6/include/c++/6.2.0/x86_64-pc-linux-gnu/LCG_87
^/lcg/contrib/gcc/6.2.0native/x86_64-slc6/include/c++/6.2.0/x86_64-pc-linux-gnu/PayloadMode.h
^/lcg/contrib/gcc/6.2.0native/x86_64-slc6/include/c++/6.2.0/x86_64-pc-linux-gnu/PyCool
^/lcg/contrib/gcc/6.2.0native/x86_64-slc6/include/c++/6.2.0/x86_64-pc-linux-gnu/PyCool_headers_and_helpers.h
^/lcg/contrib/gcc/6.2.0native/x86_64-slc6/include/c++/6.2.0/x86_64-pc-linux-gnu/ROOT
^/lcg/contrib/gcc/6.2.0native/x86_64-slc6/include/c++/6.2.0/x86_64-pc-linux-gnu/ROOT-6.08.02
^/lcg/contrib/gcc/6.2.0native/x86_64-slc6/include/c++/6.2.0/x86_64-pc-linux-gnu/ROOT-6.08.02-build
^/lcg/contrib/gcc/6.2.0native/x86_64-slc6/include/c++/6.2.0/x86_64-pc-linux-gnu/Record.h
^/lcg/contrib/gcc/6.2.0native/x86_64-slc6/include/c++/6.2.0/x86_64-pc-linux-gnu/RecordSpecification.h
^/lcg/contrib/gcc/6.2.0native/x86_64-slc6/include/c++/6.2.0/x86_64-pc-linux-gnu/Release
^/lcg/contrib/gcc/6.2.0native/x86_64-slc6/include/c++/6.2.0/x86_64-pc-linux-gnu/ServiceHandle.h
^/lcg/contrib/gcc/6.2.0native/x86_64-slc6/include/c++/6.2.0/x86_64-pc-linux-gnu/StorageType.h
^/lcg/contrib/gcc/6.2.0native/x86_64-slc6/include/c++/6.2.0/x86_64-pc-linux-gnu/StringPool.h
^/lcg/contrib/gcc/6.2.0native/x86_64-slc6/include/c++/6.2.0/x86_64-pc-linux-gnu/Time.h
^/lcg/contrib/gcc/6.2.0native/x86_64-slc6/include/c++/6.2.0/x86_64-pc-linux-gnu/_internal
^/lcg/contrib/gcc/6.2.0native/x86_64-slc6/include/c++/6.2.0/x86_64-pc-linux-gnu/_numpyconfig.h
^/lcg/contrib/gcc/6.2.0native/x86_64-slc6/include/c++/6.2.0/x86_64-pc-linux-gnu/asm
^/lcg/contrib/gcc/6.2.0native/x86_64-slc6/include/c++/6.2.0/x86_64-pc-linux-gnu/assert.h
^/lcg/contrib/gcc/6.2.0native/x86_64-slc6/include/c++/6.2.0/x86_64-pc-linux-gnu/atlas.cern.ch
^/lcg/contrib/gcc/6.2.0native/x86_64-slc6/include/c++/6.2.0/x86_64-pc-linux-gnu/atomic_base.h
^/lcg/contrib/gcc/6.2.0native/x86_64-slc6/include/c++/6.2.0/x86_64-pc-linux-gnu/basic_ios.h
^/lcg/contrib/gcc/6.2.0native/x86_64-slc6/include/c++/6.2.0/x86_64-pc-linux-gnu/basic_ios.tcc
^/lcg/contrib/gcc/6.2.0native/x86_64-slc6/include/c++/6.2.0/x86_64-pc-linux-gnu/bin
^/lcg/contrib/gcc/6.2.0native/x86_64-slc6/include/c++/6.2.0/x86_64-pc-linux-gnu/bits/atomic_word.h
^/lcg/contrib/gcc/6.2.0native/x86_64-slc6/include/c++/6.2.0/x86_64-pc-linux-gnu/bits/basic_file.h
^/lcg/contrib/gcc/6.2.0native/x86_64-slc6/include/c++/6.2.0/x86_64-pc-linux-gnu/bits/c++allocator.h
^/lcg/contrib/gcc/6.2.0native/x86_64-slc6/include/c++/6.2.0/x86_64-pc-linux-gnu/bits/c++config.h
^/lcg/contrib/gcc/6.2.0native/x86_64-slc6/include/c++/6.2.0/x86_64-pc-linux-gnu/bits/c++io.h
^/lcg/contrib/gcc/6.2.0native/x86_64-slc6/include/c++/6.2.0/x86_64-pc-linux-gnu/bits/c++locale.h
^/lcg/contrib/gcc/6.2.0native/x86_64-slc6/include/c++/6.2.0/x86_64-pc-linux-gnu/bits/cpu_defines.h
^/lcg/contrib/gcc/6.2.0native/x86_64-slc6/include/c++/6.2.0/x86_64-pc-linux-gnu/bits/ctype_base.h
^/lcg/contrib/gcc/6.2.0native/x86_64-slc6/include/c++/6.2.0/x86_64-pc-linux-gnu/bits/ctype_inline.h
^/lcg/contrib/gcc/6.2.0native/x86_64-slc6/include/c++/6.2.0/x86_64-pc-linux-gnu/bits/cxxabi_tweaks.h
^/lcg/contrib/gcc/6.2.0native/x86_64-slc6/include/c++/6.2.0/x86_64-pc-linux-gnu/bits/error_constants.h
^/lcg/contrib/gcc/6.2.0native/x86_64-slc6/include/c++/6.2.0/x86_64-pc-linux-gnu/bits/gthr-default.h
^/lcg/contrib/gcc/6.2.0native/x86_64-slc6/include/c++/6.2.0/x86_64-pc-linux-gnu/bits/gthr.h
^/lcg/contrib/gcc/6.2.0native/x86_64-slc6/include/c++/6.2.0/x86_64-pc-linux-gnu/bits/messages_members.h
^/lcg/contrib/gcc/6.2.0native/x86_64-slc6/include/c++/6.2.0/x86_64-pc-linux-gnu/bits/opt_random.h
^/lcg/contrib/gcc/6.2.0native/x86_64-slc6/include/c++/6.2.0/x86_64-pc-linux-gnu/bits/os_defines.h
^/lcg/contrib/gcc/6.2.0native/x86_64-slc6/include/c++/6.2.0/x86_64-pc-linux-gnu/bits/stat.h
^/lcg/contrib/gcc/6.2.0native/x86_64-slc6/include/c++/6.2.0/x86_64-pc-linux-gnu/bits/syscall.h
^/lcg/contrib/gcc/6.2.0native/x86_64-slc6/include/c++/6.2.0/x86_64-pc-linux-gnu/bits/time.h
^/lcg/contrib/gcc/6.2.0native/x86_64-slc6/include/c++/6.2.0/x86_64-pc-linux-gnu/bits/time_members.h
^/lcg/contrib/gcc/6.2.0native/x86_64-slc6/include/c++/6.2.0/x86_64-pc-linux-gnu/bits/types.h
^/lcg/contrib/gcc/6.2.0native/x86_64-slc6/include/c++/6.2.0/x86_64-pc-linux-gnu/bits/wordsize.h
^/lcg/contrib/gcc/6.2.0native/x86_64-slc6/include/c++/6.2.0/x86_64-pc-linux-gnu/bits
^/lcg/contrib/gcc/6.2.0native/x86_64-slc6/include/c++/6.2.0/x86_64-pc-linux-gnu/build
^/lcg/contrib/gcc/6.2.0native/x86_64-slc6/include/c++/6.2.0/x86_64-pc-linux-gnu/c++config.h
^/lcg/contrib/gcc/6.2.0native/x86_64-slc6/include/c++/6.2.0/x86_64-pc-linux-gnu/char_traits.h
^/lcg/contrib/gcc/6.2.0native/x86_64-slc6/include/c++/6.2.0/x86_64-pc-linux-gnu/contrib
^/lcg/contrib/gcc/6.2.0native/x86_64-slc6/include/c++/6.2.0/x86_64-pc-linux-gnu/core
^/lcg/contrib/gcc/6.2.0native/x86_64-slc6/include/c++/6.2.0/x86_64-pc-linux-gnu/ctype.h
^/lcg/contrib/gcc/6.2.0native/x86_64-slc6/include/c++/6.2.0/x86_64-pc-linux-gnu/cvmfs
^/lcg/contrib/gcc/6.2.0native/x86_64-slc6/include/c++/6.2.0/x86_64-pc-linux-gnu/endian.h
^/lcg/contrib/gcc/6.2.0native/x86_64-slc6/include/c++/6.2.0/x86_64-pc-linux-gnu/errno.h
^/lcg/contrib/gcc/6.2.0native/x86_64-slc6/include/c++/6.2.0/x86_64-pc-linux-gnu/etc
^/lcg/contrib/gcc/6.2.0native/x86_64-slc6/include/c++/6.2.0/x86_64-pc-linux-gnu/execinfo.h
^/lcg/contrib/gcc/6.2.0native/x86_64-slc6/include/c++/6.2.0/x86_64-pc-linux-gnu/extend_interfaces.h
^/lcg/contrib/gcc/6.2.0native/x86_64-slc6/include/c++/6.2.0/x86_64-pc-linux-gnu/features.h
^/lcg/contrib/gcc/6.2.0native/x86_64-slc6/include/c++/6.2.0/x86_64-pc-linux-gnu/float.h
^/lcg/contrib/gcc/6.2.0native/x86_64-slc6/include/c++/6.2.0/x86_64-pc-linux-gnu/gcc
^/lcg/contrib/gcc/6.2.0native/x86_64-slc6/include/c++/6.2.0/x86_64-pc-linux-gnu/gcc62
^/lcg/contrib/gcc/6.2.0native/x86_64-slc6/include/c++/6.2.0/x86_64-pc-linux-gnu/getMessageSvc.h
^/lcg/contrib/gcc/6.2.0native/x86_64-slc6/include/c++/6.2.0/x86_64-pc-linux-gnu/hashtable.h
^/lcg/contrib/gcc/6.2.0native/x86_64-slc6/include/c++/6.2.0/x86_64-pc-linux-gnu/implements.h
^/lcg/contrib/gcc/6.2.0native/x86_64-slc6/include/c++/6.2.0/x86_64-pc-linux-gnu/include
^/lcg/contrib/gcc/6.2.0native/x86_64-slc6/include/c++/6.2.0/x86_64-pc-linux-gnu/install
^/lcg/contrib/gcc/6.2.0native/x86_64-slc6/include/c++/6.2.0/x86_64-pc-linux-gnu/inttypes.h
^/lcg/contrib/gcc/6.2.0native/x86_64-slc6/include/c++/6.2.0/x86_64-pc-linux-gnu/ios_base.h
^/lcg/contrib/gcc/6.2.0native/x86_64-slc6/include/c++/6.2.0/x86_64-pc-linux-gnu/istream.tcc
^/lcg/contrib/gcc/6.2.0native/x86_64-slc6/include/c++/6.2.0/x86_64-pc-linux-gnu/jenkins
^/lcg/contrib/gcc/6.2.0native/x86_64-slc6/include/c++/6.2.0/x86_64-pc-linux-gnu/lcg
^/lcg/contrib/gcc/6.2.0native/x86_64-slc6/include/c++/6.2.0/x86_64-pc-linux-gnu/lcg_release_tar
^/lcg/contrib/gcc/6.2.0native/x86_64-slc6/include/c++/6.2.0/x86_64-pc-linux-gnu/lib
^/lcg/contrib/gcc/6.2.0native/x86_64-slc6/include/c++/6.2.0/x86_64-pc-linux-gnu/limits.h
^/lcg/contrib/gcc/6.2.0native/x86_64-slc6/include/c++/6.2.0/x86_64-pc-linux-gnu/locale_classes.h
^/lcg/contrib/gcc/6.2.0native/x86_64-slc6/include/c++/6.2.0/x86_64-pc-linux-gnu/malloc.h
^/lcg/contrib/gcc/6.2.0native/x86_64-slc6/include/c++/6.2.0/x86_64-pc-linux-gnu/math.h
^/lcg/contrib/gcc/6.2.0native/x86_64-slc6/include/c++/6.2.0/x86_64-pc-linux-gnu/mnt
^/lcg/contrib/gcc/6.2.0native/x86_64-slc6/include/c++/6.2.0/x86_64-pc-linux-gnu/numpy
^/lcg/contrib/gcc/6.2.0native/x86_64-slc6/include/c++/6.2.0/x86_64-pc-linux-gnu/numpy-1.11.0-py2.7-linux-x86_64.egg
^/lcg/contrib/gcc/6.2.0native/x86_64-slc6/include/c++/6.2.0/x86_64-pc-linux-gnu/numpyconfig.h
^/lcg/contrib/gcc/6.2.0native/x86_64-slc6/include/c++/6.2.0/x86_64-pc-linux-gnu/projects
^/lcg/contrib/gcc/6.2.0native/x86_64-slc6/include/c++/6.2.0/x86_64-pc-linux-gnu/pthread.h
^/lcg/contrib/gcc/6.2.0native/x86_64-slc6/include/c++/6.2.0/x86_64-pc-linux-gnu/python
^/lcg/contrib/gcc/6.2.0native/x86_64-slc6/include/c++/6.2.0/x86_64-pc-linux-gnu/python2.7
^/lcg/contrib/gcc/6.2.0native/x86_64-slc6/include/c++/6.2.0/x86_64-pc-linux-gnu/releases
^/lcg/contrib/gcc/6.2.0native/x86_64-slc6/include/c++/6.2.0/x86_64-pc-linux-gnu/repo
^/lcg/contrib/gcc/6.2.0native/x86_64-slc6/include/c++/6.2.0/x86_64-pc-linux-gnu/sched.h
^/lcg/contrib/gcc/6.2.0native/x86_64-slc6/include/c++/6.2.0/x86_64-pc-linux-gnu/sft.cern.ch
^/lcg/contrib/gcc/6.2.0native/x86_64-slc6/include/c++/6.2.0/x86_64-pc-linux-gnu/shared_ptr.h
^/lcg/contrib/gcc/6.2.0native/x86_64-slc6/include/c++/6.2.0/x86_64-pc-linux-gnu/shared_ptr_base.h
^/lcg/contrib/gcc/6.2.0native/x86_64-slc6/include/c++/6.2.0/x86_64-pc-linux-gnu/site-packages
^/lcg/contrib/gcc/6.2.0native/x86_64-slc6/include/c++/6.2.0/x86_64-pc-linux-gnu/slc6
^/lcg/contrib/gcc/6.2.0native/x86_64-slc6/include/c++/6.2.0/x86_64-pc-linux-gnu/software
^/lcg/contrib/gcc/6.2.0native/x86_64-slc6/include/c++/6.2.0/x86_64-pc-linux-gnu/src
^/lcg/contrib/gcc/6.2.0native/x86_64-slc6/include/c++/6.2.0/x86_64-pc-linux-gnu/sstream.tcc
^/lcg/contrib/gcc/6.2.0native/x86_64-slc6/include/c++/6.2.0/x86_64-pc-linux-gnu/std_mutex.h
^/lcg/contrib/gcc/6.2.0native/x86_64-slc6/include/c++/6.2.0/x86_64-pc-linux-gnu/stdarg.h
^/lcg/contrib/gcc/6.2.0native/x86_64-slc6/include/c++/6.2.0/x86_64-pc-linux-gnu/stddef.h
^/lcg/contrib/gcc/6.2.0native/x86_64-slc6/include/c++/6.2.0/x86_64-pc-linux-gnu/stdint.h
^/lcg/contrib/gcc/6.2.0native/x86_64-slc6/include/c++/6.2.0/x86_64-pc-linux-gnu/stdio.h
^/lcg/contrib/gcc/6.2.0native/x86_64-slc6/include/c++/6.2.0/x86_64-pc-linux-gnu/stl_algobase.h
^/lcg/contrib/gcc/6.2.0native/x86_64-slc6/include/c++/6.2.0/x86_64-pc-linux-gnu/stl_bvector.h
^/lcg/contrib/gcc/6.2.0native/x86_64-slc6/include/c++/6.2.0/x86_64-pc-linux-gnu/stl_iterator.h
^/lcg/contrib/gcc/6.2.0native/x86_64-slc6/include/c++/6.2.0/x86_64-pc-linux-gnu/stl_list.h
^/lcg/contrib/gcc/6.2.0native/x86_64-slc6/include/c++/6.2.0/x86_64-pc-linux-gnu/stl_pair.h
^/lcg/contrib/gcc/6.2.0native/x86_64-slc6/include/c++/6.2.0/x86_64-pc-linux-gnu/stl_tree.h
^/lcg/contrib/gcc/6.2.0native/x86_64-slc6/include/c++/6.2.0/x86_64-pc-linux-gnu/stl_vector.h
^/lcg/contrib/gcc/6.2.0native/x86_64-slc6/include/c++/6.2.0/x86_64-pc-linux-gnu/streambuf.tcc
^/lcg/contrib/gcc/6.2.0native/x86_64-slc6/include/c++/6.2.0/x86_64-pc-linux-gnu/string.h
^/lcg/contrib/gcc/6.2.0native/x86_64-slc6/include/c++/6.2.0/x86_64-pc-linux-gnu/sw
^/lcg/contrib/gcc/6.2.0native/x86_64-slc6/include/c++/6.2.0/x86_64-pc-linux-gnu/sys
^/lcg/contrib/gcc/6.2.0native/x86_64-slc6/include/c++/6.2.0/x86_64-pc-linux-gnu/time.h
^/lcg/contrib/gcc/6.2.0native/x86_64-slc6/include/c++/6.2.0/x86_64-pc-linux-gnu/tools
^/lcg/contrib/gcc/6.2.0native/x86_64-slc6/include/c++/6.2.0/x86_64-pc-linux-gnu/unique_ptr.h
^/lcg/contrib/gcc/6.2.0native/x86_64-slc6/include/c++/6.2.0/x86_64-pc-linux-gnu/unistd.h
^/lcg/contrib/gcc/6.2.0native/x86_64-slc6/include/c++/6.2.0/x86_64-pc-linux-gnu/wchar.h
^/lcg/contrib/gcc/6.2.0native/x86_64-slc6/include/c++/6.2.0/x86_64-pc-linux-gnu/workspace
^/lcg/contrib/gcc/6.2.0native/x86_64-slc6/include/c++/6.2.0/x86_64-pc-linux-gnu/x86_64-pc-linux-gnu
^/lcg/contrib/gcc/6.2.0native/x86_64-slc6/include/c++/6.2.0/x86_64-pc-linux-gnu/x86_64-slc6
^/lcg/contrib/gcc/6.2.0native/x86_64-slc6/include/c++/6.2.0/x86_64-pc-linux-gnu/x86_64-slc6-gcc62-opt
^/lcg/contrib/gcc/6.2.0native/x86_64-slc6/include/c++/6.2.0/x86_64-pc-linux-gnu
^/lcg/contrib/gcc/6.2.0native/x86_64-slc6/include/c++/6.2.0/x86_64-slc6
^/lcg/contrib/gcc/6.2.0native/x86_64-slc6/include/c++/6.2.0/x86_64-slc6-gcc62-opt
^/lcg/contrib/gcc/6.2.0native/x86_64-slc6/include/c++/6.2.0
^/lcg/contrib/gcc/6.2.0native/x86_64-slc6/include/c++/lib
^/lcg/contrib/gcc/6.2.0native/x86_64-slc6/include/c++
^/lcg/contrib/gcc/6.2.0native/x86_64-slc6/include
^/lcg/contrib/gcc/6.2.0native/x86_64-slc6/lib/gcc/x86_64-pc-linux-gnu/6.2.0
^/lcg/contrib/gcc/6.2.0native/x86_64-slc6/lib/gcc/x86_64-pc-linux-gnu
^/lcg/contrib/gcc/6.2.0native/x86_64-slc6/lib/gcc
^/lcg/contrib/gcc/6.2.0native/x86_64-slc6/lib
^/lcg/contrib/gcc/6.2.0native/x86_64-slc6
^/lcg/contrib/gcc/6.2.0native
^/lcg/contrib/gcc
^/lcg/contrib
^/*
^/lcg/lastUpdate