[doOneWrapper (2)] HOME=/results/atlas-gen-c4-e5-1564938438_1173/proc_2/HOME
[doOneWrapper (2)] Sun Aug  4 19:07:18 CEST 2019 : process 2 configured
[doOneWrapper (2)] current process pid is 121

[doOneWrapper (2)] Sun Aug  4 19:07:18 CEST 2019 : inside docker - run doOne as bmkuser
[doOne (2)] Sun Aug  4 19:07:18 CEST 2019 starting in /results/atlas-gen-c4-e5-1564938438_1173/proc_2
Using AtlasProduction/19.2.5.5 [cmt] with platform x86_64-slc6-gcc47-opt
	at /cvmfs/atlas.cern.ch/repo/sw/software/x86_64-slc6-gcc47-opt/19.2.5
[doOne (2)] Sun Aug  4 19:13:13 CEST 2019 completed (status=0)

[doOneWrapper (2)] Sun Aug  4 19:13:13 CEST 2019 : process 2 completed ok

