{"run_info":{"copies":1 , "threads_per_copy":4 , "events_per_thread" : 2 },
"report": { "wl-scores": {"gen-sim" :0.0666} , 
"wl-stats": {"throughput_score": {"avg": 0.0666, "median": 0.0666, "min": 0.0666, "max": 0.0666, "count":1} , 
"CPU_score": {"avg": 0.0254, "median": 0.0254, "min": 0.0254, "max": 0.0254, "count":1} }, "log": "ok"}, 
"app": {"version":"v0.16","description":"CMS GEN-SIM of ttbar events, based on CMSSW_10_2_9",
    "cvmfs_checksum":"c8e29b993587c7e92411afb219787e65",
    "bmkdata_checksum":"9035578520013c3a5faac30bc36e30e0",
    "bmk_checksum":"a3299c240b48e19a7547d8a865fb7233",
    "containment": "docker"} 
}
