{
  "version": "v0.1",
  "description": "Atlas simulation MT (GEANT4) based on athena version 22.0.25",
  "cvmfs_checksum": "03f93f14ed0b00cb0086c0ad70208258",
  "bmkdata_checksum": "af1a10964f83d37f9e6f79baec9e37db",
  "bmk_checksum": "aa4c44397c1b236dbe3f38602950489f",
  "containment": "docker"
}
