{
  "argValues": {
    "athenaopts": [
      "--preloadlib=/cvmfs/atlas.cern.ch/repo/sw/software/x86_64-slc6-gcc47-opt/19.2.5/sw/IntelSoftware/linux/x86_64/xe2013/composer_xe_2013.3.163/compiler/lib/intel64/libintlc.so.5:/cvmfs/atlas.cern.ch/repo/sw/software/x86_64-slc6-gcc47-opt/19.2.5/sw/IntelSoftware/linux/x86_64/xe2013/composer_xe_2013.3.163/compiler/lib/intel64/libimf.so"
    ], 
    "ecmEnergy": 13000.0, 
    "firstEvent": 47060001, 
    "jobConfig": {
      "all": [
        "/bmk/atlas-gen/auxfiles/MC15.410501.PowhegPythia8EvtGen_A14_ttbar_hdamp258p75_nonallhad.py"
      ]
    }, 
    "maxEvents": {
      "all": 5
    }, 
    "outputEVNTFile": [
      "EVNT.10867034._003922.pool.root.1"
    ], 
    "outputTXTFile": [
      "TXT.10867034._003922.tar.gz.1"
    ], 
    "printEvts": 5, 
    "randomSeed": {
      "all": 9413
    }, 
    "runNumber": 410501, 
    "skipEvents": {
      "first": 17060000
    }
  }, 
  "cmdLine": "'/cvmfs/atlas.cern.ch/repo/sw/software/x86_64-slc6-gcc47-opt/19.2.5/AtlasProduction/19.2.5.5/InstallArea/share/bin/Generate_tf.py' '--ecmEnergy=13000' '--firstEvent=47060001' '--jobConfig=/bmk/atlas-gen/auxfiles/MC15.410501.PowhegPythia8EvtGen_A14_ttbar_hdamp258p75_nonallhad.py' '--maxEvents=5' '--outputEVNTFile=EVNT.10867034._003922.pool.root.1' '--outputTXTFile=TXT.10867034._003922.tar.gz.1' '--randomSeed=9413' '--runNumber=410501' '--skipEvents=17060000'", 
  "created": "2019-08-04T19:13:13", 
  "executor": [
    {
      "asetup": null, 
      "errMsg": "", 
      "exeConfig": {
        "outputs": [
          "TXT", 
          "EVNT"
        ], 
        "script": "athena.py", 
        "substep": null
      }, 
      "logfileReport": {
        "countSummary": {
          "CRITICAL": 0, 
          "DEBUG": 0, 
          "ERROR": 0, 
          "FATAL": 0, 
          "IGNORED": 0, 
          "INFO": 31010, 
          "UNKNOWN": 2877, 
          "VERBOSE": 0, 
          "WARNING": 6
        }, 
        "details": {}
      }, 
      "metaData": {
        "GenFiltEff": "5.555556e-01", 
        "contactPhysicist": "andrea.helen.knue@cern.ch, james.robinson@cern.ch, onofrio@liverpool.ac.uk, ian.connelly@cern.ch", 
        "cross-section (nb)": "7.355e-01", 
        "genFilterNames": "TTbarWToLeptonFilter", 
        "generator": "Pythia 8.210", 
        "generatorName": "Powheg+Pythia8+EvtGen", 
        "generatorTune": "A14 NNPDF23LO", 
        "keywords": "lepton, top, ttbar, sm", 
        "physicsComment": "POWHEG+Pythia8 ttbar production with Powheg hdamp equal 1.5*top mass, A14 tune, at least one lepton filter, ME NNPDF30 NLO, A14 NNPDF23 LO", 
        "randomSeed": "9413", 
        "specialConfig": "NONE", 
        "weights": "nominal  |  muR = 1.0, muF = 2.0  |  muR = 1.0, muF = 0.5  |  muR = 2.0, muF = 1.0  |  muR = 0.5, muF = 1.0  |  muR = 0.5, muF = 0.5  |  muR = 2.0, muF = 2.0  |  muR = 2.0, muF = 0.5  |  muR = 0.5, muF = 2.0  |  PDF set = 25200  |  PDF set = 13165  |  PDF set = 90900  |  PDF set = 260001  |  PDF set = 260002  |  PDF set = 260003  |  PDF set = 260004  |  PDF set = 260005  |  PDF set = 260006  |  PDF set = 260007  |  PDF set = 260008  |  PDF set = 260009  |  PDF set = 260010  |  PDF set = 260011  |  PDF set = 260012  |  PDF set = 260013  |  PDF set = 260014  |  PDF set = 260015  |  PDF set = 260016  |  PDF set = 260017  |  PDF set = 260018  |  PDF set = 260019  |  PDF set = 260020  |  PDF set = 260021  |  PDF set = 260022  |  PDF set = 260023  |  PDF set = 260024  |  PDF set = 260025  |  PDF set = 260026  |  PDF set = 260027  |  PDF set = 260028  |  PDF set = 260029  |  PDF set = 260030  |  PDF set = 260031  |  PDF set = 260032  |  PDF set = 260033  |  PDF set = 260034  |  PDF set = 260035  |  PDF set = 260036  |  PDF set = 260037  |  PDF set = 260038  |  PDF set = 260039  |  PDF set = 260040  |  PDF set = 260041  |  PDF set = 260042  |  PDF set = 260043  |  PDF set = 260044  |  PDF set = 260045  |  PDF set = 260046  |  PDF set = 260047  |  PDF set = 260048  |  PDF set = 260049  |  PDF set = 260050  |  PDF set = 260051  |  PDF set = 260052  |  PDF set = 260053  |  PDF set = 260054  |  PDF set = 260055  |  PDF set = 260056  |  PDF set = 260057  |  PDF set = 260058  |  PDF set = 260059  |  PDF set = 260060  |  PDF set = 260061  |  PDF set = 260062  |  PDF set = 260063  |  PDF set = 260064  |  PDF set = 260065  |  PDF set = 260066  |  PDF set = 260067  |  PDF set = 260068  |  PDF set = 260069  |  PDF set = 260070  |  PDF set = 260071  |  PDF set = 260072  |  PDF set = 260073  |  PDF set = 260074  |  PDF set = 260075  |  PDF set = 260076  |  PDF set = 260077  |  PDF set = 260078  |  PDF set = 260079  |  PDF set = 260080  |  PDF set = 260081  |  PDF set = 260082  |  PDF set = 260083  |  PDF set = 260084  |  PDF set = 260085  |  PDF set = 260086  |  PDF set = 260087  |  PDF set = 260088  |  PDF set = 260089  |  PDF set = 260090  |  PDF set = 260091  |  PDF set = 260092  |  PDF set = 260093  |  PDF set = 260094  |  PDF set = 260095  |  PDF set = 260096  |  PDF set = 260097  |  PDF set = 260098  |  PDF set = 260099  |  PDF set = 260100  |  PDF set = 90901  |  PDF set = 90902  |  PDF set = 90903  |  PDF set = 90904  |  PDF set = 90905  |  PDF set = 90906  |  PDF set = 90907  |  PDF set = 90908  |  PDF set = 90909  |  PDF set = 90910  |  PDF set = 90911  |  PDF set = 90912  |  PDF set = 90913  |  PDF set = 90914  |  PDF set = 90915  |  PDF set = 90916  |  PDF set = 90917  |  PDF set = 90918  |  PDF set = 90919  |  PDF set = 90920  |  PDF set = 90921  |  PDF set = 90922  |  PDF set = 90923  |  PDF set = 90924  |  PDF set = 90925  |  PDF set = 90926  |  PDF set = 90927  |  PDF set = 90928  |  PDF set = 90929  |  PDF set = 90930  |  2muF_MMHT  |  0p5muF_MMHT  |  2muR_MMHT  |  0p5muR_MMHT  |  0p5muF_0p5muR_MMHT  |  2muF_2muR_MMHT  |  0p5muF_2muR_MMHT  |  2muF_0p5muR_MMHT  |  2muF_CT14  |  0p5muF_CT14  |  2muR_CT14  |  0p5muR_CT14  |  0p5muF_0p5muR_CT14  |  2muF_2muR_CT14  |  0p5muF_2muR_CT14  |  2muF_0p5muR_CT14  |  2muF_PDF4LHC15  |  0p5muF_PDF4LHC15  |  2muR_PDF4LHC15  |  0p5muR_PDF4LHC15  |  0p5muF_0p5muR_PDF4LHC15  |  2muF_2muR_PDF4LHC15  |  0p5muF_2muR_PDF4LHC15  |  2muF_0p5muR_PDF4LHC15  |"
      }, 
      "name": "generate", 
      "rc": 0, 
      "statusOK": true, 
      "validation": true
    }
  ], 
  "exitAcronym": "OK", 
  "exitCode": 0, 
  "exitMsg": "OK", 
  "exitMsgExtra": "", 
  "files": {
    "input": [], 
    "output": [
      {
        "argName": "outputTXTFile", 
        "dataset": null, 
        "subFiles": [
          {
            "file_guid": "C566A43C-A7B1-4BAD-B007-5E0F1D0DFE26", 
            "file_size": 37068, 
            "integrity": true, 
            "name": "TXT.10867034._003922.tar.gz.1", 
            "nentries": "UNDEFINED"
          }
        ], 
        "type": "TXT"
      }, 
      {
        "argName": "outputEVNTFile", 
        "dataset": null, 
        "subFiles": [
          {
            "AODFixVersion": "", 
            "beam_energy": [
              6500000.0
            ], 
            "beam_type": [
              "collisions"
            ], 
            "conditions_tag": null, 
            "file_guid": "B247401D-BE91-DA4F-B5D2-A0EFAD99CFEA", 
            "file_size": 219285, 
            "file_type": "pool", 
            "geometry": null, 
            "integrity": true, 
            "lumi_block": [
              0
            ], 
            "name": "EVNT.10867034._003922.pool.root.1", 
            "nentries": 5, 
            "run_number": [
              410501
            ]
          }
        ], 
        "type": "EVNT"
      }
    ]
  }, 
  "name": "Generate_tf", 
  "reportVersion": "1.0.1", 
  "resource": {
    "executor": {
      "generate": {
        "cpuTime": 280, 
        "wallTime": 323
      }
    }, 
    "machine": {
      "cpu_family": "6", 
      "linux_distribution": [
        "Scientific Linux CERN SLC", 
        "6.10", 
        "Carbon"
      ], 
      "model": "60", 
      "model_name": "Intel Core Processor (Haswell, no TSX, IBRS)", 
      "node": "afd8811a28db", 
      "platform": "Linux-3.10.0-957.21.3.el7.x86_64-x86_64-with-redhat-6.10-Carbon"
    }, 
    "transform": {
      "cpuTime": 6, 
      "externalCpuTime": 6, 
      "wallTime": 340
    }
  }
}