[doOneWrapper (1)] Thu Sep 30 16:48:39 CEST 2021 : process 1 configured
[doOneWrapper (1)] HOME=/results/cms-digi-run3-c1-e20-1633013319_4044/proc_1/HOME
[doOneWrapper (1)] current process pid is 219
[doOneWrapper (1)] run doOne as bmkuser

[doOne (1)] Thu Sep 30 16:48:39 CEST 2021 starting in /results/cms-digi-run3-c1-e20-1633013319_4044/proc_1
value CMSSW_RELEASE=CMSSW_11_2_0
value VO_CMS_SW_DIR=/cvmfs/cms.cern.ch
value SCRAM_ARCH=slc7_amd64_gcc900
WARNING: In non-interactive mode release checks e.g. deprecated releases, production architectures are disabled.
/results/cms-digi-run3-c1-e20-1633013319_4044/proc_1/CMSSW_11_2_0 /results/cms-digi-run3-c1-e20-1633013319_4044/proc_1
/results/cms-digi-run3-c1-e20-1633013319_4044/proc_1
[doOne (1)] Thu Sep 30 16:57:52 CEST 2021 completed (status=0)

[doOneWrapper (1)] Thu Sep 30 16:57:52 CEST 2021 : process 1 (pid=219) completed ok

