{
    "run_info": {"copies":1 , "threads_per_copy":4 , "events_per_thread" : 2 },
    "report": {"wl-scores": {"gen-sim": 0.0948}, "wl-stats": {"throughput_score": {"avg": 0.0948, "median": 0.0948, "min": 0.0948, "max": 0.0948, "count": 1} , "CPU_score": {"avg": 0.0399, "median": 0.0399, "min": 0.0399, "max": 0.0399, "count": 1} }, "log": "ok"}, 
    "app": {
  "version": "v0.1",
  "description": "CMS GEN-SIM of ttbar events, based on CMSSW_11_2_0",
  "cvmfs_checksum": "af0d6d936555cb9bbeef0c03020481f1",
  "bmkdata_checksum": "9f911694b370400da56614c2bf415840",
  "bmk_checksum": "ef3efafc5d93fe6760b79988ead6d8b0",
  "containment": "docker"
} }
