{
  "version": "v0.1",
  "description": "CMS GEN-SIM of ttbar events, based on CMSSW_11_2_0",
  "cvmfs_checksum": "af0d6d936555cb9bbeef0c03020481f1",
  "bmkdata_checksum": "9f911694b370400da56614c2bf415840",
  "bmk_checksum": "ef3efafc5d93fe6760b79988ead6d8b0",
  "containment": "docker"
}
