{
  "version": "v0.4",
  "description": "CMS GPU-enabled application, based on CMSSW_12_1_0",
  "cvmfs_checksum": "594ffed1b5263f91bb57b9e09096b915",
  "bmkdata_checksum": "26b332b220affa24c438eea6af0b9c72",
  "bmk_checksum": "c085d66f595056557cad5cba05c94ef6",
  "containment": "docker"
}
