# trfJobReport file generated on 2021-11-02T15:06:56
{'cmdLine': "'/cvmfs/atlas.cern.ch/repo/sw/software/22.0/Athena/22.0.27/InstallArea/x86_64-centos7-gcc8-opt/bin/AtlasG4_tf.py' "
            "'--multithreaded=True' "
            "'--inputEVNTFile=/cvmfs/atlas.cern.ch/repo/benchmarks/hep-workloads/input-data/EVNT.13043099._000859.pool.root.1' "
            "'--maxEvents=6' "
            "'--geometryVersion=ATLAS-R2-2016-01-00-01_VALIDATION' "
            "'--runNumber=407343' '--AMITag=s3126' '--DataRunNumber=284500' "
            "'--postInclude=default:RecJobTransforms/UseFrontier.py' "
            "'--preExec=AtlasG4Tf:simFlags.ReleaseGeoModel=False;from "
            'AtlasGeoModel.MuonGMJobProperties import '
            "MuonGeometryFlags;MuonGeometryFlags.reset();MuonGeometryFlags.hasSTGC.set_Value_and_Lock(False);MuonGeometryFlags.hasMM.set_Value_and_Lock(False)' "
            "'--preInclude' "
            "'EVNTtoHITS:SimulationJobOptions/preInclude.BeamPipeKill.py,SimulationJobOptions/preInclude.FrozenShowersFCalOnly.py' "
            "'--firstEvent=6160001' '--outputHITSFile=myHITS.pool.root' "
            "'--physicsList=FTFP_BERT_ATL_VALIDATION' '--randomSeed=6163' "
            "'--conditionsTag=default:OFLCOND-MC16-SDR-14' "
            "'--truthStrategy=MC15aPlus' '--DBRelease=100.0.2'",
 'created': '2021-11-02T15:06:56',
 'executor': [{'asetup': None,
               'errMsg': '',
               'exeConfig': {'inputs': ['EVNT'],
                             'outputs': ['HITS'],
                             'script': 'athena.py',
                             'substep': 'sim'},
               'logfileReport': {'countSummary': {'CATASTROPHE': 0,
                                                  'CRITICAL': 0,
                                                  'DEBUG': 1,
                                                  'ERROR': 0,
                                                  'FATAL': 0,
                                                  'IGNORED': 0,
                                                  'INFO': 1372,
                                                  'UNKNOWN': 11176,
                                                  'VERBOSE': 0,
                                                  'WARNING': 52},
                                 'details': {}},
               'metaData': {},
               'name': 'AtlasG4Tf',
               'rc': 0,
               'statusOK': True,
               'validation': True}],
 'exitAcronym': 'OK',
 'exitCode': 0,
 'exitMsg': 'OK',
 'exitMsgExtra': '',
 'files': {'input': [{'dataset': None,
                      'nentries': 10000,
                      'subFiles': [{'file_guid': '6F29B2BF-E01D-D541-A819-89CF9B212CB6',
                                    'name': 'EVNT.13043099._000859.pool.root.1'}],
                      'type': 'EVNT'}],
           'output': [{'argName': 'outputHITSFile',
                       'dataset': None,
                       'subFiles': [{'file_guid': 'F3E01A80-74CB-B549-87E7-FEB39FE17897',
                                     'file_size': 8931395,
                                     'name': 'myHITS.pool.root',
                                     'nentries': 6}],
                       'type': 'HITS'}]},
 'name': 'AtlasG4_tf',
 'reportVersion': '2.0.9',
 'resource': {'executor': {'AtlasG4Tf': {'cpuTime': 2480.55,
                                         'memory': {'Avg': {'nprocs': 2.0,
                                                            'nthreads': 5.692,
                                                            'pss': 1533636.0,
                                                            'rchar': 206080.0,
                                                            'read_bytes': 268751.0,
                                                            'rss': 1687714.0,
                                                            'rx_bytes': 0.0,
                                                            'rx_packets': 0.0,
                                                            'swap': 0.0,
                                                            'tx_bytes': 0.0,
                                                            'tx_packets': 0.0,
                                                            'vmem': 2594286.0,
                                                            'wchar': 9541.0,
                                                            'write_bytes': 8206.0},
                                                    'HW': {'cpu': {'CPUs': 8,
                                                                   'CoresPerSocket': 1,
                                                                   'ModelName': 'Intel '
                                                                                'Core '
                                                                                'Processor '
                                                                                '(Broadwell, '
                                                                                'IBRS)',
                                                                   'Sockets': 8,
                                                                   'ThreadsPerCore': 1},
                                                           'mem': {'MemTotal': 29988164}},
                                                    'Max': {'nprocs': 2,
                                                            'nthreads': 6,
                                                            'pss': 1631123,
                                                            'rchar': 325941075,
                                                            'read_bytes': 425062400,
                                                            'rss': 1788300,
                                                            'rx_bytes': 0,
                                                            'rx_packets': 0,
                                                            'stime': 10,
                                                            'swap': 0,
                                                            'tx_bytes': 0,
                                                            'tx_packets': 0,
                                                            'utime': 2465,
                                                            'vmem': 2708640,
                                                            'wchar': 15091771,
                                                            'write_bytes': 12980224,
                                                            'wtime': 1581},
                                                    'prmon': {'Version': '2.2.0'}},
                                         'memoryAnalysis': {'chi2': 291.71,
                                                            'slope': 71.53},
                                         'nevents': 6,
                                         'postExe': {'cpuTime': 2.32,
                                                     'wallTime': 1.01},
                                         'preExe': {'cpuTime': 0.0,
                                                    'wallTime': 0.0},
                                         'total': {'cpuTime': 2482.87,
                                                   'wallTime': 1612.58},
                                         'validation': {'cpuTime': 0.0,
                                                        'wallTime': 0.95},
                                         'wallTime': 1610.62}},
              'machine': {'cpu_family': '6',
                          'linux_distribution': ('CentOS Linux',
                                                 '7.9.2009',
                                                 'Core'),
                          'model': '61',
                          'model_name': 'Intel Core Processor (Broadwell, '
                                        'IBRS)',
                          'node': '2d1d68cdc030',
                          'platform': 'Linux-3.10.0-1160.45.1.el7.x86_64-x86_64-with-centos-7.9.2009-Core'},
              'transform': {'cpuEfficiency': 1.5267,
                            'cpuPWEfficiency': 1.5267,
                            'cpuTime': 5.27,
                            'cpuTimeTotal': 2482.87,
                            'externalCpuTime': 2.96,
                            'inFileValidation': {'cpuTime': 0.6,
                                                 'wallTime': 12.24},
                            'outFileValidation': {'cpuTime': 0.0,
                                                  'wallTime': 0.25},
                            'processedEvents': 6,
                            'reportGeneration': {'cpuTime': 0.04,
                                                 'wallTime': 3.12},
                            'transformSetup': {'cpuTime': 0.0,
                                               'wallTime': 0.02},
                            'trfPredata': None,
                            'wallTime': 1628.21}}}
# Environment dump
ALRB_ACM_PATH=/cvmfs/atlas.cern.ch/repo/ATLASLocalRootBase/x86_64/acm/0.1.26/acm
ALRB_OSMAJORVER=7
ALRB_OSTYPE=Linux
ALRB_RELOCATEALRB=NO
ALRB_RELOCATECVMFS=NO
ALRB_RHVER=7
ALRB_SCRATCH=/results/atlas-sim_mt-c4-e3-1635860374_2972/proc_2/HOME/.alrb
ALRB_SFTNIGHT_LCG=none
ALRB_SFT_LCG=/cvmfs/sft.cern.ch/lcg
ALRB_SFT_LCGEXT_MAP=/cvmfs/sft.cern.ch/lcg/mapfile.txt
ALRB_SHELL=bash
ALRB_USER_PLATFORM=centos7
ALRB_allowSL6onSL5=NO
ALRB_availableTools= acm adctools agis art asetup atlantis boost clang cmake cppcheck davix dcube eiclient emi fax fftw ganga gcc gccxml git gitlab gsl hdf5 lcgenv logstash pacman panda png prmon pyami python rcsetup root rucio sft swmgr tbb views xcache xrootd
ALRB_availableToolsPost= advanced diagnostics helpme printmenu showversions
ALRB_availableToolsPre= lsetup
ALRB_clientShell=bash
ALRB_cvmfs_ALRB=/cvmfs/atlas.cern.ch/repo/ATLASLocalRootBase
ALRB_cvmfs_Athena=/cvmfs/atlas.cern.ch/repo/sw/software
ALRB_cvmfs_CDB=/cvmfs/atlas-condb.cern.ch/repo/conditions
ALRB_cvmfs_condb_repo=/cvmfs/atlas-condb.cern.ch/repo
ALRB_cvmfs_nightly_repo=/cvmfs/atlas-nightlies.cern.ch/repo
ALRB_cvmfs_repo=/cvmfs/atlas.cern.ch/repo
ALRB_cvmfs_sft_repo=/cvmfs/sft.cern.ch/lcg
ALRB_cvmfs_sftnight_repo=/cvmfs/sft-nightlies.cern.ch/lcg
ALRB_cvmfs_unpacked_repo=/cvmfs/unpacked.cern.ch
ALRB_gridType=none
ALRB_infoProc=model name	: Intel Core Processor (Broadwell, IBRS)
ALRB_infoUname=Linux 2d1d68cdc030 3.10.0-1160.45.1.el7.x86_64 #1 SMP Wed Oct 13 17:20:51 UTC 2021 x86_64 x86_64 x86_64 GNU/Linux
ALRB_motdExclusions=
ALRB_printHelpMain=
ALRB_requestedVersions=cmake:3.18.3  rcsetup:00-04-18  acm:0.1.26 asetup:V02-00-26  
ALRB_sedExclusions=
ALRB_testPath=,,
ALRB_tmpScratch=/tmp/bmkuser/.alrb
ALRB_useGridSW=emi
APP=atlas-sim_mt
ASETUP_ENVFILE=/tmp/bmkuser/.envBefore_asetup.sh-_Xp5xt_122
ASETUP_PPID=122
ASETUP_PRINTLEVEL=0
ASETUP_SYSBIN=/tmp/bmkuser/.asetup-sysbin-hfvkot_1
ASG_TEST_FILE_DATA=/cvmfs/atlas-nightlies.cern.ch/repo/data/data-art/ASG/DAOD_PHYS/v1/data.DAOD_PHYS.pool.root
ASG_TEST_FILE_MC=/cvmfs/atlas-nightlies.cern.ch/repo/data/data-art/ASG/DAOD_PHYS/v1/ttbar.FullSim.DAOD_PHYS.pool.root
ASG_TEST_FILE_MC_AFII=/cvmfs/atlas-nightlies.cern.ch/repo/data/data-art/ASG/DAOD_PHYS/v1/ttbar.AFII.DAOD_PHYS.pool.root
ATHENA_CORE_NUMBER=2
ATLASCALDATA=/cvmfs/atlas.cern.ch/repo/sw/software/22.0/atlas/offline/ReleaseData/v20
ATLASMKLLIBDIR_PRELOAD=/cvmfs/atlas.cern.ch/repo/sw/software/22.0/AthenaExternals/22.0.27/InstallArea/x86_64-centos7-gcc8-opt/lib
ATLASTESTDATA=/cvmfs/atlas.cern.ch/repo/sw/software/22.0/atlas/offline/ReleaseData/v20/testfile
ATLAS_DB_AREA=/cvmfs/atlas.cern.ch/repo/sw/database
ATLAS_GPERFTOOLS_DIR=/cvmfs/atlas.cern.ch/repo/sw/software/22.0/sw/lcg/releases/LCG_98python3_ATLAS_6/gperftools/2.8.1/x86_64-centos7-gcc8-opt/lib
ATLAS_LOCAL_ACM_VERSION=0.1.26
ATLAS_LOCAL_ASETUP_PATH=/cvmfs/atlas.cern.ch/repo/ATLASLocalRootBase/x86_64/AtlasSetup/V02-00-26
ATLAS_LOCAL_ASETUP_VERSION=V02-00-26
ATLAS_LOCAL_CMAKE_VERSION=3.18.3
ATLAS_LOCAL_RCSETUP_PATH=/cvmfs/atlas.cern.ch/repo/ATLASLocalRootBase/x86_64/rcSetup/00-04-18
ATLAS_LOCAL_RCSETUP_VERSION=00-04-18
ATLAS_LOCAL_ROOT=/cvmfs/atlas.cern.ch/repo/ATLASLocalRootBase/x86_64
ATLAS_LOCAL_ROOT_ARCH=x86_64
ATLAS_LOCAL_ROOT_BASE=/cvmfs/atlas.cern.ch/repo/ATLASLocalRootBase
ATLAS_LOCAL_ROOT_PACOPT=
ATLAS_LOCAL_SETUP_OPTIONS=-q
ATLAS_POOLCOND_PATH=/cvmfs/atlas-condb.cern.ch/repo/conditions
ATLAS_RELEASEDATA=/cvmfs/atlas.cern.ch/repo/sw/software/22.0/atlas/offline/ReleaseData
ATLAS_RELEASE_BASE=/cvmfs/atlas.cern.ch/repo/sw/software/22.0
ATLAS_TWISSFILES=/cvmfs/atlas.cern.ch/repo/sw/software/22.0/atlas/offline/external/TwissFiles
AthenaExternals_DIR=/cvmfs/atlas.cern.ch/repo/sw/software/22.0/AthenaExternals/22.0.27/InstallArea/x86_64-centos7-gcc8-opt
AthenaExternals_PLATFORM=x86_64-centos7-gcc8-opt
AthenaExternals_SET_UP=1
AthenaExternals_VERSION=22.0.27
Athena_DIR=/cvmfs/atlas.cern.ch/repo/sw/software/22.0/Athena/22.0.27/InstallArea/x86_64-centos7-gcc8-opt
Athena_PLATFORM=x86_64-centos7-gcc8-opt
Athena_SET_UP=1
Athena_VERSION=22.0.27
AtlasArea=/cvmfs/atlas.cern.ch/repo/sw/software/22.0/Athena/22.0.27
AtlasBaseDir=/cvmfs/atlas.cern.ch/repo/sw/software/22.0
AtlasBuildBranch=22.0
AtlasBuildStamp=2021-02-17T2101
AtlasProject=Athena
AtlasReleaseType=stable
AtlasSetup=/cvmfs/atlas.cern.ch/repo/ATLASLocalRootBase/x86_64/AtlasSetup/V02-00-26/AtlasSetup
AtlasSetupSite=/cvmfs/atlas.cern.ch/repo/ATLASLocalRootBase/x86_64/AtlasSetup/.config/.asetup.site
AtlasSetupSiteCMake=/cvmfs/atlas.cern.ch/repo/ATLASLocalRootBase/x86_64/AtlasSetup/.configCMake/.asetup.site
AtlasSetupStatus=0
AtlasVersion=22.0.27
BINARY_TAG=x86_64-centos7-gcc8-opt
BMKDIR=/bmk/atlas-sim_mt
CALIBPATH=/cvmfs/atlas.cern.ch/repo/sw/software/22.0/Athena/22.0.27/InstallArea/x86_64-centos7-gcc8-opt/data:/cvmfs/atlas.cern.ch/repo/sw/software/22.0/Athena/22.0.27/InstallArea/x86_64-centos7-gcc8-opt/share:/cvmfs/atlas.cern.ch/repo/sw/software/22.0/AthenaExternals/22.0.27/InstallArea/x86_64-centos7-gcc8-opt/data:/cvmfs/atlas.cern.ch/repo/sw/software/22.0/AthenaExternals/22.0.27/InstallArea/x86_64-centos7-gcc8-opt/share:/sw/DbData/GroupData:/cvmfs/atlas.cern.ch/repo/sw/database/GroupData:/eos/atlas/atlascerngroupdisk/asg-calib:/cvmfs/atlas.cern.ch/repo/sw/software/22.0/atlas/www/GROUPS/DATABASE/GroupData:http//cern.ch/atlas-groupdata:http//atlas.web.cern.ch/Atlas/GROUPS/DATABASE/GroupData
CC=/cvmfs/sft.cern.ch/lcg/releases/gcc/8.3.0-cebb0/x86_64-centos7/bin/gcc
CLING_STANDARD_PCH=none
CMAKE_NO_VERBOSE=1
CMAKE_PREFIX_PATH=/cvmfs/atlas.cern.ch/repo/sw/software/22.0/Athena/22.0.27/InstallArea/x86_64-centos7-gcc8-opt:/cvmfs/atlas.cern.ch/repo/sw/software/22.0/AthenaExternals/22.0.27/InstallArea/x86_64-centos7-gcc8-opt
CMTCONFIG=x86_64-centos7-gcc8-opt
CMTUSERCONTEXT=/cvmfs/atlas.cern.ch/repo/tools/slc6/cmt
COMPILER_PATH=/cvmfs/sft.cern.ch/lcg/releases/gcc/8.3.0-cebb0/x86_64-centos7
COOL_DISABLE_CORALCONNECTIONPOOLCLEANUP=YES
COOL_ORA_ENABLE_ADAPTIVE_OPT=Y
CORAL_AUTH_PATH=/cvmfs/atlas.cern.ch/repo/sw/software/22.0/Athena/22.0.27/InstallArea/x86_64-centos7-gcc8-opt/XML/AtlasAuthentication
CORAL_DBLOOKUP_PATH=/cvmfs/atlas.cern.ch/repo/sw/software/22.0/Athena/22.0.27/InstallArea/x86_64-centos7-gcc8-opt/XML/AtlasAuthentication
CPPYY_API_PATH=none
CPPYY_NO_ROOT_FILTER=1
CXX=/cvmfs/sft.cern.ch/lcg/releases/gcc/8.3.0-cebb0/x86_64-centos7/bin/g++
DATAPATH=/cvmfs/atlas.cern.ch/repo/sw/software/22.0/Athena/22.0.27/InstallArea/x86_64-centos7-gcc8-opt/data:/cvmfs/atlas.cern.ch/repo/sw/software/22.0/Athena/22.0.27/InstallArea/x86_64-centos7-gcc8-opt/share:/cvmfs/atlas.cern.ch/repo/sw/software/22.0/AthenaExternals/22.0.27/InstallArea/x86_64-centos7-gcc8-opt/share:/cvmfs/atlas.cern.ch/repo/sw/software/22.0/AthenaExternals/22.0.27/InstallArea/x86_64-centos7-gcc8-opt/data:/sw/DbData:/cvmfs/atlas.cern.ch/repo/sw/software/22.0/atlas/offline/ReleaseData/v20:/cvmfs/atlas.cern.ch/repo/sw/software/22.0/atlas/offline/ReleaseData/v20/testfile:/cvmfs/atlas.cern.ch/repo/sw/software/22.0/atlas/offline/external/TwissFiles/v003:/cvmfs/atlas-nightlies.cern.ch/repo/data/data-art
DBRELEASE_OVERRIDE=current
DEBUG=0
DYLD_LIBRARY_PATH=/cvmfs/atlas.cern.ch/repo/sw/software/22.0/Athena/22.0.27/InstallArea/x86_64-centos7-gcc8-opt/lib:/cvmfs/atlas.cern.ch/repo/sw/software/22.0/AthenaExternals/22.0.27/InstallArea/x86_64-centos7-gcc8-opt/lib
EXTRA_CLING_ARGS= -O2 -mavx
FASTJETPATH=/cvmfs/atlas.cern.ch/repo/sw/software/22.0/Athena/22.0.27/InstallArea/x86_64-centos7-gcc8-opt/../../../../AthenaExternals/22.0.27/InstallArea/x86_64-centos7-gcc8-opt
FC=/cvmfs/sft.cern.ch/lcg/releases/gcc/8.3.0-cebb0/x86_64-centos7/bin/gfortran
FRONTIER_LOG_LEVEL=warning
G4ABLADATA=/cvmfs/atlas.cern.ch/repo/sw/software/22.0/Geant4/share/geant4.10.6.patch03.atlasmt02/data/G4ABLA
G4ENSDFSTATEDATA=/cvmfs/atlas.cern.ch/repo/sw/software/22.0/Geant4/share/geant4.10.6.patch03.atlasmt02/data/G4ENSDFSTATE
G4INCLDATA=/cvmfs/atlas.cern.ch/repo/sw/software/22.0/Geant4/share/geant4.10.6.patch03.atlasmt02/data/G4INCL
G4INCLUDE=/cvmfs/atlas.cern.ch/repo/sw/software/22.0/Athena/22.0.27/InstallArea/x86_64-centos7-gcc8-opt/../../../../AthenaExternals/22.0.27/InstallArea/x86_64-centos7-gcc8-opt/include/Geant4
G4INSTALL=/cvmfs/atlas.cern.ch/repo/sw/software/22.0/Athena/22.0.27/InstallArea/x86_64-centos7-gcc8-opt/../../../../AthenaExternals/22.0.27/InstallArea/x86_64-centos7-gcc8-opt
G4LEDATA=/cvmfs/atlas.cern.ch/repo/sw/software/22.0/Geant4/share/geant4.10.6.patch03.atlasmt02/data/G4EMLOW
G4LEVELGAMMADATA=/cvmfs/atlas.cern.ch/repo/sw/software/22.0/Geant4/share/geant4.10.6.patch03.atlasmt02/data/PhotonEvaporation
G4LIB=/cvmfs/atlas.cern.ch/repo/sw/software/22.0/Athena/22.0.27/InstallArea/x86_64-centos7-gcc8-opt/../../../../AthenaExternals/22.0.27/InstallArea/x86_64-centos7-gcc8-opt/lib
G4NEUTRONHPDATA=/cvmfs/atlas.cern.ch/repo/sw/software/22.0/Geant4/share/geant4.10.6.patch03.atlasmt02/data/G4NDL
G4PARTICLEXSDATA=/cvmfs/atlas.cern.ch/repo/sw/software/22.0/Geant4/share/geant4.10.6.patch03.atlasmt02/data/G4PARTICLEXS
G4PATH=/cvmfs/atlas.cern.ch/repo/sw/software/22.0/Geant4
G4PIIDATA=/cvmfs/atlas.cern.ch/repo/sw/software/22.0/Geant4/share/geant4.10.6.patch03.atlasmt02/data/G4PII
G4RADIOACTIVEDATA=/cvmfs/atlas.cern.ch/repo/sw/software/22.0/Geant4/share/geant4.10.6.patch03.atlasmt02/data/RadioactiveDecay
G4REALSURFACEDATA=/cvmfs/atlas.cern.ch/repo/sw/software/22.0/Geant4/share/geant4.10.6.patch03.atlasmt02/data/RealSurface
G4SAIDXSDATA=/cvmfs/atlas.cern.ch/repo/sw/software/22.0/Geant4/share/geant4.10.6.patch03.atlasmt02/data/G4SAIDDATA
G4SYSTEM=Linux-g++
G4VERS=geant4.10.6.patch03.atlasmt02
GAUDI_PROPERTY_PARSING_ERROR_DEFAULT_POLICY=Exception
GEANT4=/cvmfs/atlas.cern.ch/repo/sw/software/22.0/Athena/22.0.27/InstallArea/x86_64-centos7-gcc8-opt/../../../../AthenaExternals/22.0.27/InstallArea/x86_64-centos7-gcc8-opt
GFORTRAN_UNBUFFERED_ALL=y
Geant4_data=/cvmfs/atlas.cern.ch/repo/sw/software/22.0/Geant4/share/geant4.10.6.patch03.atlasmt02/data
HERWIG7VER=7.2.1
HERWIG7_PATH=/cvmfs/atlas.cern.ch/repo/sw/software/22.0/sw/lcg/releases/LCG_98python3_ATLAS_6/MCGenerators/herwig++/7.2.1/x86_64-centos7-gcc8-opt
HOME=/results/atlas-sim_mt-c4-e3-1635860374_2972/proc_2/HOME
HOSTNAME=2d1d68cdc030
JOBOPTSEARCHPATH=.:/cvmfs/atlas.cern.ch/repo/sw/software/22.0/Athena/22.0.27/InstallArea/x86_64-centos7-gcc8-opt/jobOptions:/cvmfs/atlas.cern.ch/repo/sw/software/22.0/AthenaExternals/22.0.27/InstallArea/x86_64-centos7-gcc8-opt/jobOptions:/results/atlas-sim_mt-c4-e3-1635860374_2972/proc_2
LANG=C
LCG_PLATFORM=x86_64-centos7-gcc8-opt
LCG_RELEASE_BASE=/cvmfs/atlas.cern.ch/repo/sw/software/22.0/sw/lcg/releases
LC_ALL=C
LD_LIBRARY_PATH=/cvmfs/atlas.cern.ch/repo/sw/software/22.0/Athena/22.0.27/InstallArea/x86_64-centos7-gcc8-opt/lib:/cvmfs/atlas.cern.ch/repo/sw/software/22.0/AthenaExternals/22.0.27/InstallArea/x86_64-centos7-gcc8-opt/lib:/cvmfs/atlas.cern.ch/repo/sw/software/22.0/sw/lcg/releases/LCG_98python3_ATLAS_6/fmt/6.1.2/x86_64-centos7-gcc8-opt/lib64:/cvmfs/atlas.cern.ch/repo/sw/software/22.0/sw/lcg/releases/LCG_98python3_ATLAS_6/frontier_client/2.9.1/x86_64-centos7-gcc8-opt/lib:/cvmfs/atlas.cern.ch/repo/sw/software/22.0/sw/lcg/releases/LCG_98python3_ATLAS_6/png/1.6.37/x86_64-centos7-gcc8-opt/lib:/cvmfs/atlas.cern.ch/repo/sw/software/22.0/sw/lcg/releases/LCG_98python3_ATLAS_6/zlib/1.2.11/x86_64-centos7-gcc8-opt/lib:/cvmfs/atlas.cern.ch/repo/sw/software/22.0/sw/lcg/releases/LCG_98python3_ATLAS_6/tiff/4.0.10/x86_64-centos7-gcc8-opt/lib:/cvmfs/atlas.cern.ch/repo/sw/software/22.0/sw/lcg/releases/LCG_98python3_ATLAS_6/libunwind/1.3.1/x86_64-centos7-gcc8-opt/lib:/cvmfs/atlas.cern.ch/repo/sw/software/22.0/sw/lcg/releases/LCG_98python3_ATLAS_6/gperftools/2.8.1/x86_64-centos7-gcc8-opt/lib:/cvmfs/atlas.cern.ch/repo/sw/software/22.0/sw/lcg/releases/LCG_98python3_ATLAS_6/vdt/0.4.3/x86_64-centos7-gcc8-opt/lib:/cvmfs/atlas.cern.ch/repo/sw/software/22.0/sw/lcg/releases/LCG_98python3_ATLAS_6/oracle/19.3.0.0.0/x86_64-centos7-gcc8-opt/lib:/cvmfs/atlas.cern.ch/repo/sw/software/22.0/sw/lcg/releases/LCG_98python3_ATLAS_6/CppUnit/1.14.0/x86_64-centos7-gcc8-opt/lib:/cvmfs/atlas.cern.ch/repo/sw/software/22.0/sw/lcg/releases/LCG_98python3_ATLAS_6/xrootd/4.12.3/x86_64-centos7-gcc8-opt/lib64:/cvmfs/atlas.cern.ch/repo/sw/software/22.0/sw/lcg/releases/LCG_98python3_ATLAS_6/Grid/dcap/2.47.7-1/x86_64-centos7-gcc8-opt/lib64:/cvmfs/atlas.cern.ch/repo/sw/software/22.0/sw/lcg/releases/LCG_98python3_ATLAS_6/Davix/0.7.6/x86_64-centos7-gcc8-opt/lib64:/cvmfs/atlas.cern.ch/repo/sw/software/22.0/sw/lcg/releases/LCG_98python3_ATLAS_6/MCGenerators/evtgen/1.7.0/x86_64-centos7-gcc8-opt/lib:/cvmfs/atlas.cern.ch/repo/sw/software/22.0/sw/lcg/releases/LCG_98python3_ATLAS_6/MCGenerators/herwig++/7.2.1/x86_64-centos7-gcc8-opt/lib/Herwig:/cvmfs/atlas.cern.ch/repo/sw/software/22.0/sw/lcg/releases/LCG_98python3_ATLAS_6/MCGenerators/thepeg/2.2.1/x86_64-centos7-gcc8-opt/lib/ThePEG:/cvmfs/atlas.cern.ch/repo/sw/software/22.0/sw/lcg/releases/LCG_98python3_ATLAS_6/MCGenerators/hijing/1.383bs.2/x86_64-centos7-gcc8-opt/lib:/cvmfs/atlas.cern.ch/repo/sw/software/22.0/sw/lcg/releases/LCG_98python3_ATLAS_6/MCGenerators/hydjet/1.8/x86_64-centos7-gcc8-opt/lib:/cvmfs/atlas.cern.ch/repo/sw/software/22.0/sw/lcg/releases/LCG_98python3_ATLAS_6/MCGenerators/pyquen/1.5.1/x86_64-centos7-gcc8-opt/lib:/cvmfs/atlas.cern.ch/repo/sw/software/22.0/sw/lcg/releases/LCG_98python3_ATLAS_6/MCGenerators/pythia6/429.2/x86_64-centos7-gcc8-opt/lib:/cvmfs/atlas.cern.ch/repo/sw/software/22.0/sw/lcg/releases/LCG_98python3_ATLAS_6/MCGenerators/mctester/1.25.0/x86_64-centos7-gcc8-opt/lib:/cvmfs/atlas.cern.ch/repo/sw/software/22.0/sw/lcg/releases/LCG_98python3_ATLAS_6/MCGenerators/photos++/3.61/x86_64-centos7-gcc8-opt/lib:/cvmfs/atlas.cern.ch/repo/sw/software/22.0/sw/lcg/releases/LCG_98python3_ATLAS_6/MCGenerators/crmc/1.6.0/x86_64-centos7-gcc8-opt/lib:/cvmfs/atlas.cern.ch/repo/sw/software/22.0/sw/lcg/releases/LCG_98python3_ATLAS_6/MCGenerators/openloops/2.1.1/x86_64-centos7-gcc8-opt/lib:/cvmfs/atlas.cern.ch/repo/sw/software/22.0/sw/lcg/releases/LCG_98python3_ATLAS_6/hepmc3/3.2.2/x86_64-centos7-gcc8-opt/lib64:/cvmfs/atlas.cern.ch/repo/sw/software/22.0/sw/lcg/releases/LCG_98python3_ATLAS_6/MCGenerators/sherpa/2.2.11/x86_64-centos7-gcc8-opt/lib/SHERPA-MC:/cvmfs/atlas.cern.ch/repo/sw/software/22.0/sw/lcg/releases/LCG_98python3_ATLAS_6/MCGenerators/starlight/r313/x86_64-centos7-gcc8-opt/lib:/cvmfs/atlas.cern.ch/repo/sw/software/22.0/sw/lcg/releases/LCG_98python3_ATLAS_6/MCGenerators/tauola++/1.1.6/x86_64-centos7-gcc8-opt/lib:/cvmfs/atlas.cern.ch/repo/sw/software/22.0/sw/lcg/releases/LCG_98python3_ATLAS_6/MCGenerators/rivet/3.1.2/x86_64-centos7-gcc8-opt/lib:/cvmfs/atlas.cern.ch/repo/sw/software/22.0/sw/lcg/releases/LCG_98python3_ATLAS_6/MCGenerators/yoda/1.8.3/x86_64-centos7-gcc8-opt/lib:/cvmfs/atlas.cern.ch/repo/sw/software/22.0/sw/lcg/releases/LCG_98python3_ATLAS_6/libxslt/1.1.33/x86_64-centos7-gcc8-opt/lib:/cvmfs/atlas.cern.ch/repo/sw/tdaq/tdaq/tdaq-09-02-01/installed/x86_64-centos7-gcc8-opt/lib:/cvmfs/atlas.cern.ch/repo/sw/software/22.0/sw/lcg/releases/LCG_98python3_ATLAS_6/fftw3/3.3.8/x86_64-centos7-gcc8-opt/lib:/cvmfs/atlas.cern.ch/repo/sw/software/22.0/sw/lcg/releases/LCG_98python3_ATLAS_6/hdf5/1.10.5/x86_64-centos7-gcc8-opt/lib:/cvmfs/atlas.cern.ch/repo/sw/software/22.0/sw/lcg/releases/LCG_98python3_ATLAS_6/HepMC/2.06.11/x86_64-centos7-gcc8-opt/lib:/cvmfs/atlas.cern.ch/repo/sw/software/22.0/sw/lcg/releases/LCG_98python3_ATLAS_6/MCGenerators/lhapdf/6.2.3/x86_64-centos7-gcc8-opt/lib:/cvmfs/atlas.cern.ch/repo/sw/software/22.0/sw/lcg/releases/LCG_98python3_ATLAS_6/MCGenerators/pythia8/244.rangefix/x86_64-centos7-gcc8-opt/lib:/cvmfs/atlas.cern.ch/repo/sw/software/22.0/sw/lcg/releases/LCG_98python3_ATLAS_6/graphviz/2.40.1/x86_64-centos7-gcc8-opt/lib:/cvmfs/atlas.cern.ch/repo/sw/software/22.0/sw/lcg/releases/LCG_98python3_ATLAS_6/expat/2.2.6/x86_64-centos7-gcc8-opt/lib64:/cvmfs/atlas.cern.ch/repo/sw/software/22.0/sw/lcg/releases/LCG_98python3_ATLAS_6/blas/0.3.10.openblas/x86_64-centos7-gcc8-opt/lib:/cvmfs/atlas.cern.ch/repo/sw/software/22.0/sw/lcg/releases/LCG_98python3_ATLAS_6/fjcontrib/1.044/x86_64-centos7-gcc8-opt/lib:/cvmfs/atlas.cern.ch/repo/sw/software/22.0/sw/lcg/releases/LCG_98python3_ATLAS_6/GSL/2.6/x86_64-centos7-gcc8-opt/lib:/cvmfs/atlas.cern.ch/repo/sw/software/22.0/sw/lcg/releases/LCG_98python3_ATLAS_6/libxml2/2.9.9/x86_64-centos7-gcc8-opt/lib:/cvmfs/atlas.cern.ch/repo/sw/software/22.0/sw/lcg/releases/LCG_98python3_ATLAS_6/tbb/2020_U2/x86_64-centos7-gcc8-opt/lib:/cvmfs/atlas.cern.ch/repo/sw/software/22.0/sw/lcg/releases/LCG_98python3_ATLAS_6/COOL/3_3_3/x86_64-centos7-gcc8-opt/lib:/cvmfs/atlas.cern.ch/repo/sw/software/22.0/sw/lcg/releases/LCG_98python3_ATLAS_6/CORAL/3_3_3/x86_64-centos7-gcc8-opt/lib:/cvmfs/atlas.cern.ch/repo/sw/software/22.0/sw/lcg/releases/LCG_98python3_ATLAS_6/XercesC/3.2.3/x86_64-centos7-gcc8-opt/lib:/cvmfs/atlas.cern.ch/repo/sw/software/22.0/sw/lcg/releases/LCG_98python3_ATLAS_6/Python/3.7.6/x86_64-centos7-gcc8-opt/lib:/cvmfs/atlas.cern.ch/repo/sw/tdaq/tdaq-common/tdaq-common-04-02-01/installed/x86_64-centos7-gcc8-opt/lib:/cvmfs/atlas.cern.ch/repo/sw/software/22.0/sw/lcg/releases/LCG_98python3_ATLAS_6/Boost/1.73.0/x86_64-centos7-gcc8-opt/lib:/cvmfs/atlas.cern.ch/repo/sw/software/22.0/sw/lcg/releases/LCG_98python3_ATLAS_6/libxkbcommon/0.7.1/x86_64-centos7-gcc8-opt/lib:/cvmfs/atlas.cern.ch/repo/sw/software/22.0/sw/lcg/releases/LCG_98python3_ATLAS_6/libffi/3.2.1/x86_64-centos7-gcc8-opt/lib64:/cvmfs/atlas.cern.ch/repo/sw/software/22.0/sw/lcg/releases/LCG_98python3_ATLAS_6/ROOT/v6.22.00/x86_64-centos7-gcc8-opt/lib:/cvmfs/atlas.cern.ch/repo/sw/software/22.0/sw/lcg/releases/LCG_98python3_ATLAS_6/HepPDT/2.06.01/x86_64-centos7-gcc8-opt/lib:/cvmfs/atlas.cern.ch/repo/sw/software/22.0/sw/lcg/releases/LCG_98python3_ATLAS_6/freetype/2.10.0/x86_64-centos7-gcc8-opt/lib:/cvmfs/atlas.cern.ch/repo/sw/software/22.0/sw/lcg/releases/LCG_98python3_ATLAS_6/qt5/5.12.4/x86_64-centos7-gcc8-opt/lib:/cvmfs/atlas.cern.ch/repo/sw/software/22.0/sw/lcg/releases/LCG_98python3_ATLAS_6/sqlite/3320300/x86_64-centos7-gcc8-opt/lib:/cvmfs/sft.cern.ch/lcg/releases/gcc/8.3.0-cebb0/x86_64-centos7/lib:/cvmfs/sft.cern.ch/lcg/releases/gcc/8.3.0-cebb0/x86_64-centos7/lib64:/cvmfs/sft.cern.ch/lcg/releases/binutils/2.30-e5b21/x86_64-centos7/lib
LHAPATH=/cvmfs/atlas.cern.ch/repo/sw/software/22.0/sw/lcg/releases/LCG_98python3_ATLAS_6/MCGenerators/lhapdf/6.2.3/x86_64-centos7-gcc8-opt/share/LHAPDF:/cvmfs/sft.cern.ch/lcg/external/lhapdfsets/current
LHAPDF_DATA_PATH=/cvmfs/atlas.cern.ch/repo/sw/software/22.0/sw/lcg/releases/LCG_98python3_ATLAS_6/MCGenerators/lhapdf/6.2.3/x86_64-centos7-gcc8-opt/share/LHAPDF:/cvmfs/sft.cern.ch/lcg/external/lhapdfsets/current
MADGRAPHVER=2.8.1.atlas3
MADPATH=/cvmfs/atlas.cern.ch/repo/sw/software/22.0/sw/lcg/releases/LCG_98python3_ATLAS_6/MCGenerators/madgraph5amc/2.8.1.atlas3/x86_64-centos7-gcc8-opt
MAKEFLAGS=-j8 -l8
MANPATH=/cvmfs/sft.cern.ch/lcg/releases/gcc/8.3.0-cebb0/x86_64-centos7/share/man:/cvmfs/sft.cern.ch/lcg/releases/binutils/2.30-e5b21/x86_64-centos7/share/man:/usr/local/share/man:/usr/share/man
NCOPIES=4
NEVENTS_THREAD=3
NTHREADS=2
OLDPWD=/proc/84
OPENBLAS_NUM_THREADS=1
ORA_FPU_PRECISION=EXTENDED
PATH=/tmp/bmkuser/.asetup-sysbin-hfvkot_1:/cvmfs/atlas.cern.ch/repo/sw/software/22.0/Athena/22.0.27/InstallArea/x86_64-centos7-gcc8-opt/share:/cvmfs/atlas.cern.ch/repo/sw/software/22.0/Athena/22.0.27/InstallArea/x86_64-centos7-gcc8-opt/bin:/cvmfs/atlas.cern.ch/repo/sw/software/22.0/AthenaExternals/22.0.27/InstallArea/x86_64-centos7-gcc8-opt/bin:/cvmfs/atlas.cern.ch/repo/sw/software/22.0/sw/lcg/releases/LCG_98python3_ATLAS_6/doxygen/1.8.15/x86_64-centos7-gcc8-opt/bin:/cvmfs/atlas.cern.ch/repo/sw/software/22.0/sw/lcg/releases/LCG_98python3_ATLAS_6/pprof/54271f7/x86_64-centos7-gcc8-opt/bin:/cvmfs/atlas.cern.ch/repo/sw/software/22.0/sw/lcg/releases/LCG_98python3_ATLAS_6/valgrind/3.16.1/x86_64-centos7-gcc8-opt/bin:/cvmfs/atlas.cern.ch/repo/sw/software/22.0/sw/lcg/releases/LCG_98python3_ATLAS_6/ipython/7.5.0/x86_64-centos7-gcc8-opt/bin:/cvmfs/atlas.cern.ch/repo/sw/software/22.0/sw/lcg/releases/LCG_98python3_ATLAS_6/xrootd/4.12.3/x86_64-centos7-gcc8-opt/bin:/cvmfs/atlas.cern.ch/repo/sw/software/22.0/sw/lcg/releases/LCG_98python3_ATLAS_6/MCGenerators/sherpa/2.2.11/x86_64-centos7-gcc8-opt/bin:/cvmfs/atlas.cern.ch/repo/sw/tdaq/tdaq/tdaq-09-02-01/installed/x86_64-centos7-gcc8-opt/bin:/cvmfs/atlas.cern.ch/repo/sw/tdaq/tdaq/tdaq-09-02-01/installed/share/bin:/cvmfs/atlas.cern.ch/repo/sw/software/22.0/sw/lcg/releases/LCG_98python3_ATLAS_6/graphviz/2.40.1/x86_64-centos7-gcc8-opt/bin:/cvmfs/atlas.cern.ch/repo/sw/software/22.0/sw/lcg/releases/LCG_98python3_ATLAS_6/COOL/3_3_3/x86_64-centos7-gcc8-opt/bin:/cvmfs/atlas.cern.ch/repo/sw/software/22.0/sw/lcg/releases/LCG_98python3_ATLAS_6/CORAL/3_3_3/x86_64-centos7-gcc8-opt/bin:/cvmfs/atlas.cern.ch/repo/sw/software/22.0/sw/lcg/releases/LCG_98python3_ATLAS_6/Python/3.7.6/x86_64-centos7-gcc8-opt/bin:/cvmfs/atlas.cern.ch/repo/sw/software/22.0/sw/lcg/releases/LCG_98python3_ATLAS_6/future/0.17.1/x86_64-centos7-gcc8-opt/bin:/cvmfs/atlas.cern.ch/repo/sw/tdaq/tdaq-common/tdaq-common-04-02-01/installed/x86_64-centos7-gcc8-opt/bin:/cvmfs/atlas.cern.ch/repo/sw/tdaq/tdaq-common/tdaq-common-04-02-01/installed/share/bin:/cvmfs/atlas.cern.ch/repo/sw/software/22.0/sw/lcg/releases/LCG_98python3_ATLAS_6/ROOT/v6.22.00/x86_64-centos7-gcc8-opt/bin:/cvmfs/atlas.cern.ch/repo/sw/software/22.0/AthenaExternals/22.0.27/InstallArea/x86_64-centos7-gcc8-opt/share:/cvmfs/atlas.cern.ch/repo/sw/software/22.0/sw/lcg/releases/LCG_98python3_ATLAS_6/nose/1.3.7/x86_64-centos7-gcc8-opt/bin:/cvmfs/atlas.cern.ch/repo/sw/software/22.0/sw/lcg/releases/LCG_98python3_ATLAS_6/pyflakes/2.1.1/x86_64-centos7-gcc8-opt/bin:/cvmfs/atlas.cern.ch/repo/sw/software/22.0/sw/lcg/releases/LCG_98python3_ATLAS_6/pycodestyle/2.5.0/x86_64-centos7-gcc8-opt/bin:/cvmfs/atlas.cern.ch/repo/sw/software/22.0/sw/lcg/releases/LCG_98python3_ATLAS_6/pip/19.1.1/x86_64-centos7-gcc8-opt/bin:/cvmfs/atlas.cern.ch/repo/ATLASLocalRootBase/x86_64/Cmake/3.18.3/Linux-x86_64/bin:/cvmfs/sft.cern.ch/lcg/releases/gcc/8.3.0-cebb0/x86_64-centos7/bin:/cvmfs/sft.cern.ch/lcg/releases/binutils/2.30-e5b21/x86_64-centos7/bin:/usr/local/sbin:/usr/local/bin:/usr/sbin:/usr/bin:/sbin:/bin
POWHEGPATH=/cvmfs/atlas.cern.ch/repo/sw/Generators/powheg/ATLASOTF-00-04-03
PWD=/results/atlas-sim_mt-c4-e3-1635860374_2972/proc_2
PYTHONHOME=/cvmfs/atlas.cern.ch/repo/sw/software/22.0/sw/lcg/releases/LCG_98python3_ATLAS_6/Python/3.7.6/x86_64-centos7-gcc8-opt
PYTHONPATH=/cvmfs/atlas.cern.ch/repo/sw/software/22.0/Athena/22.0.27/InstallArea/x86_64-centos7-gcc8-opt/python:/cvmfs/atlas.cern.ch/repo/sw/software/22.0/Athena/22.0.27/InstallArea/x86_64-centos7-gcc8-opt/lib:/cvmfs/atlas.cern.ch/repo/sw/software/22.0/AthenaExternals/22.0.27/InstallArea/x86_64-centos7-gcc8-opt/python:/cvmfs/atlas.cern.ch/repo/sw/software/22.0/sw/lcg/releases/LCG_98python3_ATLAS_6/matplotlib/3.1.0/x86_64-centos7-gcc8-opt/lib/python3.7/site-packages:/cvmfs/atlas.cern.ch/repo/sw/software/22.0/sw/lcg/releases/LCG_98python3_ATLAS_6/numpy/1.18.2/x86_64-centos7-gcc8-opt/lib/python3.7/site-packages:/cvmfs/atlas.cern.ch/repo/sw/software/22.0/sw/lcg/releases/LCG_98python3_ATLAS_6/pandas/0.24.2/x86_64-centos7-gcc8-opt/lib/python3.7/site-packages:/cvmfs/atlas.cern.ch/repo/sw/software/22.0/sw/lcg/releases/LCG_98python3_ATLAS_6/psutil/5.6.2/x86_64-centos7-gcc8-opt/lib/python3.7/site-packages:/cvmfs/atlas.cern.ch/repo/sw/software/22.0/sw/lcg/releases/LCG_98python3_ATLAS_6/ipython/7.5.0/x86_64-centos7-gcc8-opt/lib/python3.7/site-packages:/cvmfs/atlas.cern.ch/repo/sw/software/22.0/sw/lcg/releases/LCG_98python3_ATLAS_6/sqlalchemy/1.2.10/x86_64-centos7-gcc8-opt/lib/python3.7/site-packages:/cvmfs/atlas.cern.ch/repo/sw/software/22.0/AthenaExternals/22.0.27/InstallArea/x86_64-centos7-gcc8-opt/lib/python3.7/site-packages:/cvmfs/atlas.cern.ch/repo/sw/software/22.0/sw/lcg/releases/LCG_98python3_ATLAS_6/MCGenerators/madgraph5amc/2.8.1.atlas3/x86_64-centos7-gcc8-opt:/cvmfs/atlas.cern.ch/repo/sw/tdaq/tdaq/tdaq-09-02-01/installed/share/lib/python:/cvmfs/atlas.cern.ch/repo/sw/tdaq/tdaq/tdaq-09-02-01/installed/x86_64-centos7-gcc8-opt/lib:/cvmfs/atlas.cern.ch/repo/sw/software/22.0/sw/lcg/releases/LCG_98python3_ATLAS_6/pyyaml/5.1/x86_64-centos7-gcc8-opt/lib/python3.7/site-packages:/cvmfs/atlas.cern.ch/repo/sw/software/22.0/sw/lcg/releases/LCG_98python3_ATLAS_6/decorator/4.3.2/x86_64-centos7-gcc8-opt/lib/python3.7/site-packages:/cvmfs/atlas.cern.ch/repo/sw/software/22.0/sw/lcg/releases/LCG_98python3_ATLAS_6/pygraphviz/1.5/x86_64-centos7-gcc8-opt/lib/python3.7/site-packages:/cvmfs/atlas.cern.ch/repo/sw/software/22.0/sw/lcg/releases/LCG_98python3_ATLAS_6/six/1.12.0/x86_64-centos7-gcc8-opt/lib/python3.7/site-packages:/cvmfs/atlas.cern.ch/repo/sw/software/22.0/sw/lcg/releases/LCG_98python3_ATLAS_6/cx_oracle/7.1.3/x86_64-centos7-gcc8-opt/lib/python3.7/site-packages:/cvmfs/atlas.cern.ch/repo/sw/software/22.0/sw/lcg/releases/LCG_98python3_ATLAS_6/COOL/3_3_3/x86_64-centos7-gcc8-opt/python:/cvmfs/atlas.cern.ch/repo/sw/software/22.0/sw/lcg/releases/LCG_98python3_ATLAS_6/CORAL/3_3_3/x86_64-centos7-gcc8-opt/python:/cvmfs/atlas.cern.ch/repo/sw/software/22.0/sw/lcg/releases/LCG_98python3_ATLAS_6/CORAL/3_3_3/x86_64-centos7-gcc8-opt/lib:/cvmfs/atlas.cern.ch/repo/sw/software/22.0/sw/lcg/releases/LCG_98python3_ATLAS_6/future/0.17.1/x86_64-centos7-gcc8-opt/lib/python3.7/site-packages:/cvmfs/atlas.cern.ch/repo/sw/tdaq/tdaq-common/tdaq-common-04-02-01/installed/share/lib/python:/cvmfs/atlas.cern.ch/repo/sw/tdaq/tdaq-common/tdaq-common-04-02-01/installed/x86_64-centos7-gcc8-opt/lib:/cvmfs/atlas.cern.ch/repo/sw/software/22.0/sw/lcg/releases/LCG_98python3_ATLAS_6/requests/2.22.0/x86_64-centos7-gcc8-opt/lib/python3.7/site-packages:/cvmfs/atlas.cern.ch/repo/sw/software/22.0/sw/lcg/releases/LCG_98python3_ATLAS_6/ROOT/v6.22.00/x86_64-centos7-gcc8-opt/lib:/cvmfs/atlas.cern.ch/repo/sw/software/22.0/AthenaExternals/22.0.27/InstallArea/x86_64-centos7-gcc8-opt/lib:/cvmfs/atlas.cern.ch/repo/sw/software/22.0/sw/lcg/releases/LCG_98python3_ATLAS_6/nose/1.3.7/x86_64-centos7-gcc8-opt/lib/python3.7/site-packages:/cvmfs/atlas.cern.ch/repo/sw/software/22.0/sw/lcg/releases/LCG_98python3_ATLAS_6/pyflakes/2.1.1/x86_64-centos7-gcc8-opt/lib/python3.7/site-packages:/cvmfs/atlas.cern.ch/repo/sw/software/22.0/sw/lcg/releases/LCG_98python3_ATLAS_6/pycodestyle/2.5.0/x86_64-centos7-gcc8-opt/lib/python3.7/site-packages:/cvmfs/atlas.cern.ch/repo/sw/software/22.0/sw/lcg/releases/LCG_98python3_ATLAS_6/mccabe/0.6.1/x86_64-centos7-gcc8-opt/lib/python3.7/site-packages:/cvmfs/atlas.cern.ch/repo/sw/software/22.0/sw/lcg/releases/LCG_98python3_ATLAS_6/importlib_metadata/0.18/x86_64-centos7-gcc8-opt/lib/python3.7/site-packages:/cvmfs/atlas.cern.ch/repo/sw/software/22.0/sw/lcg/releases/LCG_98python3_ATLAS_6/zipp/0.5.1/x86_64-centos7-gcc8-opt/lib/python3.7/site-packages:/cvmfs/atlas.cern.ch/repo/sw/software/22.0/sw/lcg/releases/LCG_98python3_ATLAS_6/pip/19.1.1/x86_64-centos7-gcc8-opt/lib/python3.7/site-packages
QTLIB=/cvmfs/atlas.cern.ch/repo/sw/software/22.0/sw/lcg/releases/LCG_98python3_ATLAS_6/qt5/5.12.4/x86_64-centos7-gcc8-opt/lib
QT_PLUGIN_PATH=/cvmfs/atlas.cern.ch/repo/sw/software/22.0/sw/lcg/releases/LCG_98python3_ATLAS_6/qt5/5.12.4/x86_64-centos7-gcc8-opt/plugins:/cvmfs/atlas.cern.ch/repo/sw/software/22.0/sw/lcg/releases/LCG_98python3_ATLAS_6/qt5/5.12.4/x86_64-centos7-gcc8-opt/plugins
QT_XKB_CONFIG_ROOT=/cvmfs/atlas.cern.ch/repo/sw/software/22.0/sw/lcg/releases/LCG_98python3_ATLAS_6/libxkbcommon/0.7.1/x86_64-centos7-gcc8-opt/lib
ROOTCORE_RELEASE_SERIES=25
ROOTCORE_TEST_DATA=/cvmfs/atlas-nightlies.cern.ch/repo/data/data-art/ASG/DAOD_PHYS/v1
ROOTCORE_TEST_FILE=/cvmfs/atlas-nightlies.cern.ch/repo/data/data-art/ASG/DAOD_PHYS/v1/ttbar.FullSim.DAOD_PHYS.pool.root
ROOTSYS=/cvmfs/atlas.cern.ch/repo/sw/software/22.0/sw/lcg/releases/LCG_98python3_ATLAS_6/ROOT/v6.22.00/x86_64-centos7-gcc8-opt
ROOT_INCLUDE_PATH=/cvmfs/atlas.cern.ch/repo/sw/software/22.0/Athena/22.0.27/InstallArea/x86_64-centos7-gcc8-opt/include:/cvmfs/atlas.cern.ch/repo/sw/software/22.0/AthenaExternals/22.0.27/InstallArea/x86_64-centos7-gcc8-opt/include:/cvmfs/atlas.cern.ch/repo/sw/software/22.0/sw/lcg/releases/LCG_98python3_ATLAS_6/rangev3/0.10.0/x86_64-centos7-gcc8-opt/include:/cvmfs/atlas.cern.ch/repo/sw/software/22.0/sw/lcg/releases/LCG_98python3_ATLAS_6/cppgsl/3.1.0/x86_64-centos7-gcc8-opt/include:/cvmfs/atlas.cern.ch/repo/sw/software/22.0/sw/lcg/releases/LCG_98python3_ATLAS_6/fmt/6.1.2/x86_64-centos7-gcc8-opt/include:/cvmfs/atlas.cern.ch/repo/sw/software/22.0/sw/lcg/releases/LCG_98python3_ATLAS_6/frontier_client/2.9.1/x86_64-centos7-gcc8-opt/include:/cvmfs/atlas.cern.ch/repo/sw/software/22.0/sw/lcg/releases/LCG_98python3_ATLAS_6/png/1.6.37/x86_64-centos7-gcc8-opt/include:/cvmfs/atlas.cern.ch/repo/sw/software/22.0/sw/lcg/releases/LCG_98python3_ATLAS_6/zlib/1.2.11/x86_64-centos7-gcc8-opt/include:/cvmfs/atlas.cern.ch/repo/sw/software/22.0/sw/lcg/releases/LCG_98python3_ATLAS_6/tiff/4.0.10/x86_64-centos7-gcc8-opt/include:/cvmfs/atlas.cern.ch/repo/sw/software/22.0/AthenaExternals/22.0.27/InstallArea/x86_64-centos7-gcc8-opt/include/onnxruntime:/cvmfs/atlas.cern.ch/repo/sw/software/22.0/sw/lcg/releases/LCG_98python3_ATLAS_6/libunwind/1.3.1/x86_64-centos7-gcc8-opt/include:/cvmfs/atlas.cern.ch/repo/sw/software/22.0/sw/lcg/releases/LCG_98python3_ATLAS_6/gperftools/2.8.1/x86_64-centos7-gcc8-opt/include:/cvmfs/atlas.cern.ch/repo/sw/software/22.0/sw/lcg/releases/LCG_98python3_ATLAS_6/valgrind/3.16.1/x86_64-centos7-gcc8-opt/include:/cvmfs/atlas.cern.ch/repo/sw/software/22.0/sw/lcg/releases/LCG_98python3_ATLAS_6/vdt/0.4.3/x86_64-centos7-gcc8-opt/include:/cvmfs/atlas.cern.ch/repo/sw/software/22.0/sw/lcg/releases/LCG_98python3_ATLAS_6/oracle/19.3.0.0.0/x86_64-centos7-gcc8-opt/include:/cvmfs/atlas.cern.ch/repo/sw/software/22.0/sw/lcg/releases/LCG_98python3_ATLAS_6/CppUnit/1.14.0/x86_64-centos7-gcc8-opt/include:/cvmfs/atlas.cern.ch/repo/sw/software/22.0/sw/lcg/releases/LCG_98python3_ATLAS_6/xrootd/4.12.3/x86_64-centos7-gcc8-opt/include:/cvmfs/atlas.cern.ch/repo/sw/software/22.0/sw/lcg/releases/LCG_98python3_ATLAS_6/Grid/dcap/2.47.7-1/x86_64-centos7-gcc8-opt/include:/cvmfs/atlas.cern.ch/repo/sw/software/22.0/sw/lcg/releases/LCG_98python3_ATLAS_6/Davix/0.7.6/x86_64-centos7-gcc8-opt/include/davix:/cvmfs/atlas.cern.ch/repo/sw/software/22.0/sw/lcg/releases/LCG_98python3_ATLAS_6/MCGenerators/evtgen/1.7.0/x86_64-centos7-gcc8-opt/include:/cvmfs/atlas.cern.ch/repo/sw/software/22.0/sw/lcg/releases/LCG_98python3_ATLAS_6/MCGenerators/herwig++/7.2.1/x86_64-centos7-gcc8-opt/include:/cvmfs/atlas.cern.ch/repo/sw/software/22.0/sw/lcg/releases/LCG_98python3_ATLAS_6/MCGenerators/thepeg/2.2.1/x86_64-centos7-gcc8-opt/include:/cvmfs/atlas.cern.ch/repo/sw/software/22.0/sw/lcg/releases/LCG_98python3_ATLAS_6/MCGenerators/pythia6/429.2/x86_64-centos7-gcc8-opt/include:/cvmfs/atlas.cern.ch/repo/sw/software/22.0/sw/lcg/releases/LCG_98python3_ATLAS_6/MCGenerators/mctester/1.25.0/x86_64-centos7-gcc8-opt/include:/cvmfs/atlas.cern.ch/repo/sw/software/22.0/sw/lcg/releases/LCG_98python3_ATLAS_6/MCGenerators/photos++/3.61/x86_64-centos7-gcc8-opt/include:/cvmfs/atlas.cern.ch/repo/sw/software/22.0/sw/lcg/releases/LCG_98python3_ATLAS_6/MCGenerators/crmc/1.6.0/x86_64-centos7-gcc8-opt/src:/cvmfs/atlas.cern.ch/repo/sw/software/22.0/sw/lcg/releases/LCG_98python3_ATLAS_6/MCGenerators/openloops/2.1.1/x86_64-centos7-gcc8-opt/include:/cvmfs/atlas.cern.ch/repo/sw/software/22.0/sw/lcg/releases/LCG_98python3_ATLAS_6/hepmc3/3.2.2/x86_64-centos7-gcc8-opt/include:/cvmfs/atlas.cern.ch/repo/sw/software/22.0/sw/lcg/releases/LCG_98python3_ATLAS_6/MCGenerators/sherpa/2.2.11/x86_64-centos7-gcc8-opt/include/SHERPA-MC:/cvmfs/atlas.cern.ch/repo/sw/software/22.0/sw/lcg/releases/LCG_98python3_ATLAS_6/MCGenerators/starlight/r313/x86_64-centos7-gcc8-opt/include:/cvmfs/atlas.cern.ch/repo/sw/software/22.0/sw/lcg/releases/LCG_98python3_ATLAS_6/MCGenerators/tauola++/1.1.6/x86_64-centos7-gcc8-opt/include:/cvmfs/atlas.cern.ch/repo/sw/software/22.0/sw/lcg/releases/LCG_98python3_ATLAS_6/MCGenerators/rivet/3.1.2/x86_64-centos7-gcc8-opt/include:/cvmfs/atlas.cern.ch/repo/sw/software/22.0/sw/lcg/releases/LCG_98python3_ATLAS_6/MCGenerators/yoda/1.8.3/x86_64-centos7-gcc8-opt/include:/cvmfs/atlas.cern.ch/repo/sw/software/22.0/sw/lcg/releases/LCG_98python3_ATLAS_6/libxslt/1.1.33/x86_64-centos7-gcc8-opt/include:/cvmfs/atlas.cern.ch/repo/sw/tdaq/tdaq/tdaq-09-02-01/installed/include:/cvmfs/atlas.cern.ch/repo/sw/tdaq/tdaq/tdaq-09-02-01/installed/x86_64-centos7-gcc8-opt/include:/cvmfs/atlas.cern.ch/repo/sw/software/22.0/sw/lcg/releases/LCG_98python3_ATLAS_6/fftw3/3.3.8/x86_64-centos7-gcc8-opt/include:/cvmfs/atlas.cern.ch/repo/sw/software/22.0/sw/lcg/releases/hdf5/1.10.5-d95c5/x86_64-centos7-gcc8-opt/include:/cvmfs/atlas.cern.ch/repo/sw/software/22.0/sw/lcg/releases/zlib/1.2.11-da225/x86_64-centos7-gcc8-opt/include:/cvmfs/atlas.cern.ch/repo/sw/software/22.0/sw/lcg/releases/LCG_98python3_ATLAS_6/HepMC/2.06.11/x86_64-centos7-gcc8-opt/include:/cvmfs/atlas.cern.ch/repo/sw/software/22.0/sw/lcg/releases/LCG_98python3_ATLAS_6/MCGenerators/lhapdf/6.2.3/x86_64-centos7-gcc8-opt/include:/cvmfs/atlas.cern.ch/repo/sw/software/22.0/sw/lcg/releases/LCG_98python3_ATLAS_6/MCGenerators/heputils/1.3.2/x86_64-centos7-gcc8-opt/include:/cvmfs/atlas.cern.ch/repo/sw/software/22.0/sw/lcg/releases/LCG_98python3_ATLAS_6/MCGenerators/mcutils/1.3.5/x86_64-centos7-gcc8-opt/include:/cvmfs/atlas.cern.ch/repo/sw/software/22.0/sw/lcg/releases/LCG_98python3_ATLAS_6/MCGenerators/pythia8/244.rangefix/x86_64-centos7-gcc8-opt/include:/cvmfs/atlas.cern.ch/repo/sw/software/22.0/sw/lcg/releases/LCG_98python3_ATLAS_6/eigen/3.3.7/x86_64-centos7-gcc8-opt/include/eigen3:/cvmfs/atlas.cern.ch/repo/sw/software/22.0/sw/lcg/releases/LCG_98python3_ATLAS_6/AIDA/3.2.1/x86_64-centos7-gcc8-opt/src/cpp:/cvmfs/atlas.cern.ch/repo/sw/software/22.0/sw/lcg/releases/LCG_98python3_ATLAS_6/graphviz/2.40.1/x86_64-centos7-gcc8-opt/include:/cvmfs/atlas.cern.ch/repo/sw/software/22.0/sw/lcg/releases/LCG_98python3_ATLAS_6/expat/2.2.6/x86_64-centos7-gcc8-opt/include:/cvmfs/atlas.cern.ch/repo/sw/software/22.0/AthenaExternals/22.0.27/InstallArea/x86_64-centos7-gcc8-opt/include/Geant4:/cvmfs/atlas.cern.ch/repo/sw/software/22.0/sw/lcg/releases/LCG_98python3_ATLAS_6/fjcontrib/1.044/x86_64-centos7-gcc8-opt/include:/cvmfs/atlas.cern.ch/repo/sw/software/22.0/sw/lcg/releases/LCG_98python3_ATLAS_6/GSL/2.6/x86_64-centos7-gcc8-opt/include:/cvmfs/atlas.cern.ch/repo/sw/software/22.0/sw/lcg/releases/LCG_98python3_ATLAS_6/jsonmcpp/3.6.1/x86_64-centos7-gcc8-opt/include:/cvmfs/atlas.cern.ch/repo/sw/software/22.0/sw/lcg/releases/LCG_98python3_ATLAS_6/libxml2/2.9.9/x86_64-centos7-gcc8-opt/include/libxml2:/cvmfs/atlas.cern.ch/repo/sw/software/22.0/sw/lcg/releases/LCG_98python3_ATLAS_6/tbb/2020_U2/x86_64-centos7-gcc8-opt/include:/cvmfs/atlas.cern.ch/repo/sw/software/22.0/sw/lcg/releases/LCG_98python3_ATLAS_6/COOL/3_3_3/x86_64-centos7-gcc8-opt/include:/cvmfs/atlas.cern.ch/repo/sw/software/22.0/sw/lcg/releases/LCG_98python3_ATLAS_6/CORAL/3_3_3/x86_64-centos7-gcc8-opt/include:/cvmfs/atlas.cern.ch/repo/sw/software/22.0/sw/lcg/releases/LCG_98python3_ATLAS_6/XercesC/3.2.3/x86_64-centos7-gcc8-opt/include:/cvmfs/atlas.cern.ch/repo/sw/software/22.0/sw/lcg/releases/LCG_98python3_ATLAS_6/Python/3.7.6/x86_64-centos7-gcc8-opt/include/python3.7m:/cvmfs/atlas.cern.ch/repo/sw/tdaq/tdaq-common/tdaq-common-04-02-01/installed/include:/cvmfs/atlas.cern.ch/repo/sw/software/22.0/sw/lcg/releases/LCG_98python3_ATLAS_6/Boost/1.73.0/x86_64-centos7-gcc8-opt/include:/cvmfs/atlas.cern.ch/repo/sw/software/22.0/sw/lcg/releases/LCG_98python3_ATLAS_6/libxkbcommon/0.7.1/x86_64-centos7-gcc8-opt/include:/cvmfs/atlas.cern.ch/repo/sw/software/22.0/sw/lcg/releases/LCG_98python3_ATLAS_6/libffi/3.2.1/x86_64-centos7-gcc8-opt/lib/libffi-3.2.1/include:/cvmfs/atlas.cern.ch/repo/sw/software/22.0/sw/lcg/releases/LCG_98python3_ATLAS_6/ROOT/v6.22.00/x86_64-centos7-gcc8-opt/include:/cvmfs/atlas.cern.ch/repo/sw/software/22.0/sw/lcg/releases/LCG_98python3_ATLAS_6/HepPDT/2.06.01/x86_64-centos7-gcc8-opt/include:/cvmfs/atlas.cern.ch/repo/sw/software/22.0/sw/lcg/releases/LCG_98python3_ATLAS_6/freetype/2.10.0/x86_64-centos7-gcc8-opt/include/freetype2:/cvmfs/atlas.cern.ch/repo/sw/software/22.0/sw/lcg/releases/LCG_98python3_ATLAS_6/qt5/5.12.4/x86_64-centos7-gcc8-opt/include:/cvmfs/atlas.cern.ch/repo/sw/software/22.0/sw/lcg/releases/LCG_98python3_ATLAS_6/qt5/5.12.4/x86_64-centos7-gcc8-opt/include/QtCore:/cvmfs/atlas.cern.ch/repo/sw/software/22.0/sw/lcg/releases/LCG_98python3_ATLAS_6/qt5/5.12.4/x86_64-centos7-gcc8-opt/mkspecs/linux-g++:/cvmfs/atlas.cern.ch/repo/sw/software/22.0/sw/lcg/releases/LCG_98python3_ATLAS_6/sqlite/3320300/x86_64-centos7-gcc8-opt/include:/cvmfs/atlas.cern.ch/repo/sw/software/22.0/sw/lcg/releases/LCG_98python3_ATLAS_6/qt5/5.12.4/x86_64-centos7-gcc8-opt/include/QtGui:/cvmfs/atlas.cern.ch/repo/sw/software/22.0/sw/lcg/releases/LCG_98python3_ATLAS_6/qt5/5.12.4/x86_64-centos7-gcc8-opt/include/QtWidgets:/cvmfs/atlas.cern.ch/repo/sw/software/22.0/sw/lcg/releases/LCG_98python3_ATLAS_6/qt5/5.12.4/x86_64-centos7-gcc8-opt/include/QtOpenGL
SHERPAVER=2.2.11
SHLVL=1
SITEROOT=/cvmfs/atlas.cern.ch/repo/sw/software/22.0
SSL_CERT_DIR=/cvmfs/atlas.cern.ch/repo/ATLASLocalRootBase/etc/grid-security-emi/certificates
TCMALLOCDIR=/cvmfs/atlas.cern.ch/repo/sw/software/22.0/sw/lcg/releases/LCG_98python3_ATLAS_6/gperftools/2.8.1/x86_64-centos7-gcc8-opt/lib
TDAQ_DB_PATH=/cvmfs/atlas.cern.ch/repo/sw/tdaq/tdaq/tdaq-09-02-01/installed/share/data:/cvmfs/atlas.cern.ch/repo/sw/tdaq/tdaq/tdaq-09-02-01/installed/databases:/cvmfs/atlas.cern.ch/repo/sw/tdaq/tdaq/tdaq-09-02-01/databases
TDAQ_PYTHON_HOME=/cvmfs/atlas.cern.ch/repo/sw/software/22.0/sw/lcg/releases/LCG_98python3_ATLAS_6/Python/3.7.6/x86_64-centos7-gcc8-opt
TDAQ_RELEASE_BASE=/cvmfs/atlas.cern.ch/repo/sw/tdaq
TDAQ_VERSION=09-02-01
THEPEGVER=2.2.1
TestArea=/results/atlas-sim_mt-c4-e3-1635860374_2972/proc_2
TwissFilesPATH=/cvmfs/atlas.cern.ch/repo/sw/software/22.0/atlas/offline/external/TwissFiles/v003
UBSAN_OPTIONS=suppressions=/cvmfs/atlas.cern.ch/repo/sw/software/22.0/Athena/22.0.27/InstallArea/x86_64-centos7-gcc8-opt/share/ubsan.supp
VALGRIND_LIB=/cvmfs/atlas.cern.ch/repo/sw/software/22.0/sw/lcg/releases/LCG_98python3_ATLAS_6/valgrind/3.16.1/x86_64-centos7-gcc8-opt/lib/valgrind
VALGRIND_OPTS=--smc-check=all
VIEWSDIR=/cvmfs/sft.cern.ch/lcg/views
VP1PLUGINPATH=/cvmfs/atlas.cern.ch/repo/sw/software/22.0/Athena/22.0.27/InstallArea/x86_64-centos7-gcc8-opt/lib
XMLPATH=/cvmfs/atlas.cern.ch/repo/sw/software/22.0/Athena/22.0.27/InstallArea/x86_64-centos7-gcc8-opt/XML:/cvmfs/atlas.cern.ch/repo/sw/software/22.0/AthenaExternals/22.0.27/InstallArea/x86_64-centos7-gcc8-opt/XML
_=/cvmfs/atlas.cern.ch/repo/sw/software/22.0/Athena/22.0.27/InstallArea/x86_64-centos7-gcc8-opt/bin/AtlasG4_tf.py
rcSetup=/cvmfs/atlas.cern.ch/repo/ATLASLocalRootBase/x86_64/rcSetup/00-04-18
s_msg=ok
# Machine report
{'cpu_family': '6',
 'linux_distribution': ('CentOS Linux', '7.9.2009', 'Core'),
 'model': '61',
 'model_name': 'Intel Core Processor (Broadwell, IBRS)',
 'node': '2d1d68cdc030',
 'platform': 'Linux-3.10.0-1160.45.1.el7.x86_64-x86_64-with-centos-7.9.2009-Core'}
