{"score": 18.8494, "avg": 4.7124, "median": 4.7115, "min": 4.6994, "max": 4.7271}
{"copies":4 , "threads_per_copy":1 , "events_per_thread" : 5 , "throughput_score": {"score": 18.8494, "avg": 4.7124, "median": 4.7115, "min": 4.6994, "max": 4.7271} , "log": "ok", "app":{"version":"v0.12","description":"LHCb GEN-SIM benchmark","cvmfs_checksum":"dc9fea953411cf41c03f9086f355e5fc","bmkdata_checksum":"199a9d5cb218c303eafd74076bb7a3c0","bmk_checksum":"8b45d0b7de247fea287383312204f5d8"} }
{ "GENSIM0 (evts per wall msec, including 1st evt)" : { "score" : 18.8476 , "avg" : 4.7119 , "median" : 4.711 , "min" : 4.699 , "max" : 4.7265 } , "GEN (evts per wall msec, excluding 1st evt)" : { "score" : 95.9261 , "avg" : 23.9815 , "median" : 23.9958 , "min" : 23.8629 , "max" : 24.0716 } , "SIM (evts per wall msec, excluding 1st evt)" : { "score" : 24.2931 , "avg" : 6.0733 , "median" : 6.0719 , "min" : 6.0519 , "max" : 6.0975 } }
{"copies":4 , "threads_per_copy":1 , "events_per_thread" : 5 , "throughput_score": { "GENSIM0 (evts per wall msec, including 1st evt)" : { "score" : 18.8476 , "avg" : 4.7119 , "median" : 4.711 , "min" : 4.699 , "max" : 4.7265 } , "GEN (evts per wall msec, excluding 1st evt)" : { "score" : 95.9261 , "avg" : 23.9815 , "median" : 23.9958 , "min" : 23.8629 , "max" : 24.0716 } , "SIM (evts per wall msec, excluding 1st evt)" : { "score" : 24.2931 , "avg" : 6.0733 , "median" : 6.0719 , "min" : 6.0519 , "max" : 6.0975 } } , "log": "ok", "app":{"version":"v0.12","description":"LHCb GEN-SIM benchmark","cvmfs_checksum":"dc9fea953411cf41c03f9086f355e5fc","bmkdata_checksum":"199a9d5cb218c303eafd74076bb7a3c0","bmk_checksum":"8b45d0b7de247fea287383312204f5d8"} }
{"app":{"bmk_checksum":"8b45d0b7de247fea287383312204f5d8","bmkdata_checksum":"199a9d5cb218c303eafd74076bb7a3c0","cvmfs_checksum":"dc9fea953411cf41c03f9086f355e5fc","description":"LHCb GEN-SIM benchmark","version":"v0.12"},"log":"ok","throughput_score":{"SIM (evts per wall msec, excluding 1st evt)":{"max":6.0975,"min":6.0519,"median":6.0719,"avg":6.0733,"score":24.2931},"GEN (evts per wall msec, excluding 1st evt)":{"max":24.0716,"min":23.8629,"median":23.9958,"avg":23.9815,"score":95.9261},"GENSIM0 (evts per wall msec, including 1st evt)":{"max":4.7265,"min":4.699,"median":4.711,"avg":4.7119,"score":18.8476}},"events_per_thread":5,"threads_per_copy":1,"copies":4}
{"copies":4,"threads_per_copy":1,"events_per_thread":5,"throughput_score":{"GENSIM0 (evts per wall msec, including 1st evt)":{"score":18.8476,"avg":4.7119,"median":4.711,"min":4.699,"max":4.7265},"GEN (evts per wall msec, excluding 1st evt)":{"score":95.9261,"avg":23.9815,"median":23.9958,"min":23.8629,"max":24.0716},"SIM (evts per wall msec, excluding 1st evt)":{"score":24.2931,"avg":6.0733,"median":6.0719,"min":6.0519,"max":6.0975}},"log":"ok","app":{"version":"v0.12","description":"LHCb GEN-SIM benchmark","cvmfs_checksum":"dc9fea953411cf41c03f9086f355e5fc","bmkdata_checksum":"199a9d5cb218c303eafd74076bb7a3c0","bmk_checksum":"8b45d0b7de247fea287383312204f5d8"}}
{"score": 18.6570, "avg": 4.6643, "median": 4.6668, "min": 4.6556, "max": 4.6678}
{"copies":4 , "threads_per_copy":1 , "events_per_thread" : 5 , "throughput_score": {"score": 18.6570, "avg": 4.6643, "median": 4.6668, "min": 4.6556, "max": 4.6678} , "log": "ok", "app":{"version":"v0.12","description":"LHCb GEN-SIM benchmark","cvmfs_checksum":"67243eb7814c5ea7d47c079c2338e016","bmkdata_checksum":"199a9d5cb218c303eafd74076bb7a3c0","bmk_checksum":"c5de668acf5b2793990f6229b044e239"} }
{ "GENSIM0 (evts per wall msec, including 1st evt)" : { "score" : 18.6545 , "avg" : 4.6636 , "median" : 4.6663 , "min" : 4.6552 , "max" : 4.6668 } , "GEN (evts per wall msec, excluding 1st evt)" : { "score" : 95.6729 , "avg" : 23.9182 , "median" : 23.9099 , "min" : 23.8635 , "max" : 23.9896 } , "SIM (evts per wall msec, excluding 1st evt)" : { "score" : 24.0766 , "avg" : 6.0192 , "median" : 6.0241 , "min" : 6.0 , "max" : 6.0284 } }
{"copies":4 , "threads_per_copy":1 , "events_per_thread" : 5 , "throughput_score": { "GENSIM0 (evts per wall msec, including 1st evt)" : { "score" : 18.6545 , "avg" : 4.6636 , "median" : 4.6663 , "min" : 4.6552 , "max" : 4.6668 } , "GEN (evts per wall msec, excluding 1st evt)" : { "score" : 95.6729 , "avg" : 23.9182 , "median" : 23.9099 , "min" : 23.8635 , "max" : 23.9896 } , "SIM (evts per wall msec, excluding 1st evt)" : { "score" : 24.0766 , "avg" : 6.0192 , "median" : 6.0241 , "min" : 6.0 , "max" : 6.0284 } } , "log": "ok", "app":{"version":"v0.12","description":"LHCb GEN-SIM benchmark","cvmfs_checksum":"67243eb7814c5ea7d47c079c2338e016","bmkdata_checksum":"199a9d5cb218c303eafd74076bb7a3c0","bmk_checksum":"c5de668acf5b2793990f6229b044e239"} }
{"app":{"bmk_checksum":"c5de668acf5b2793990f6229b044e239","bmkdata_checksum":"199a9d5cb218c303eafd74076bb7a3c0","cvmfs_checksum":"67243eb7814c5ea7d47c079c2338e016","description":"LHCb GEN-SIM benchmark","version":"v0.12"},"log":"ok","throughput_score":{"SIM (evts per wall msec, excluding 1st evt)":{"max":6.0284,"min":6,"median":6.0241,"avg":6.0192,"score":24.0766},"GEN (evts per wall msec, excluding 1st evt)":{"max":23.9896,"min":23.8635,"median":23.9099,"avg":23.9182,"score":95.6729},"GENSIM0 (evts per wall msec, including 1st evt)":{"max":4.6668,"min":4.6552,"median":4.6663,"avg":4.6636,"score":18.6545}},"events_per_thread":5,"threads_per_copy":1,"copies":4}
{"copies":4,"threads_per_copy":1,"events_per_thread":5,"throughput_score":{"GENSIM0 (evts per wall msec, including 1st evt)":{"score":18.8476,"avg":4.7119,"median":4.711,"min":4.699,"max":4.7265},"GEN (evts per wall msec, excluding 1st evt)":{"score":95.9261,"avg":23.9815,"median":23.9958,"min":23.8629,"max":24.0716},"SIM (evts per wall msec, excluding 1st evt)":{"score":24.2931,"avg":6.0733,"median":6.0719,"min":6.0519,"max":6.0975}},"log":"ok","app":{"version":"v0.12","description":"LHCb GEN-SIM benchmark","cvmfs_checksum":"dc9fea953411cf41c03f9086f355e5fc","bmkdata_checksum":"199a9d5cb218c303eafd74076bb7a3c0","bmk_checksum":"8b45d0b7de247fea287383312204f5d8"}}
{"score": 18.9527, "avg": 4.7382, "median": 4.7403, "min": 4.7105, "max": 4.7615}
{"copies":4 , "threads_per_copy":1 , "events_per_thread" : 5 , "throughput_score": {"score": 18.9527, "avg": 4.7382, "median": 4.7403, "min": 4.7105, "max": 4.7615} , "log": "ok", "app":{"version":"v0.12","description":"LHCb GEN-SIM benchmark","cvmfs_checksum":"67243eb7814c5ea7d47c079c2338e016","bmkdata_checksum":"199a9d5cb218c303eafd74076bb7a3c0","bmk_checksum":"c5de668acf5b2793990f6229b044e239"} }
{ "GENSIM0 (evts per wall msec, including 1st evt)" : { "score" : 18.9511 , "avg" : 4.7378 , "median" : 4.7399 , "min" : 4.7102 , "max" : 4.7611 } , "GEN (evts per wall msec, excluding 1st evt)" : { "score" : 97.1441 , "avg" : 24.286 , "median" : 24.2764 , "min" : 24.2163 , "max" : 24.3751 } , "SIM (evts per wall msec, excluding 1st evt)" : { "score" : 24.3757 , "avg" : 6.0939 , "median" : 6.097 , "min" : 6.0566 , "max" : 6.125 } }
{"copies":4 , "threads_per_copy":1 , "events_per_thread" : 5 , "throughput_score": { "GENSIM0 (evts per wall msec, including 1st evt)" : { "score" : 18.9511 , "avg" : 4.7378 , "median" : 4.7399 , "min" : 4.7102 , "max" : 4.7611 } , "GEN (evts per wall msec, excluding 1st evt)" : { "score" : 97.1441 , "avg" : 24.286 , "median" : 24.2764 , "min" : 24.2163 , "max" : 24.3751 } , "SIM (evts per wall msec, excluding 1st evt)" : { "score" : 24.3757 , "avg" : 6.0939 , "median" : 6.097 , "min" : 6.0566 , "max" : 6.125 } } , "log": "ok", "app":{"version":"v0.12","description":"LHCb GEN-SIM benchmark","cvmfs_checksum":"67243eb7814c5ea7d47c079c2338e016","bmkdata_checksum":"199a9d5cb218c303eafd74076bb7a3c0","bmk_checksum":"c5de668acf5b2793990f6229b044e239"} }
{"app":{"bmk_checksum":"c5de668acf5b2793990f6229b044e239","bmkdata_checksum":"199a9d5cb218c303eafd74076bb7a3c0","cvmfs_checksum":"67243eb7814c5ea7d47c079c2338e016","description":"LHCb GEN-SIM benchmark","version":"v0.12"},"log":"ok","throughput_score":{"SIM (evts per wall msec, excluding 1st evt)":{"max":6.125,"min":6.0566,"median":6.097,"avg":6.0939,"score":24.3757},"GEN (evts per wall msec, excluding 1st evt)":{"max":24.3751,"min":24.2163,"median":24.2764,"avg":24.286,"score":97.1441},"GENSIM0 (evts per wall msec, including 1st evt)":{"max":4.7611,"min":4.7102,"median":4.7399,"avg":4.7378,"score":18.9511}},"events_per_thread":5,"threads_per_copy":1,"copies":4}
{"copies":4,"threads_per_copy":1,"events_per_thread":5,"throughput_score":{"GENSIM0 (evts per wall msec, including 1st evt)":{"score":18.8476,"avg":4.7119,"median":4.711,"min":4.699,"max":4.7265},"GEN (evts per wall msec, excluding 1st evt)":{"score":95.9261,"avg":23.9815,"median":23.9958,"min":23.8629,"max":24.0716},"SIM (evts per wall msec, excluding 1st evt)":{"score":24.2931,"avg":6.0733,"median":6.0719,"min":6.0519,"max":6.0975}},"log":"ok","app":{"version":"v0.12","description":"LHCb GEN-SIM benchmark","cvmfs_checksum":"dc9fea953411cf41c03f9086f355e5fc","bmkdata_checksum":"199a9d5cb218c303eafd74076bb7a3c0","bmk_checksum":"8b45d0b7de247fea287383312204f5d8"}}
